#separator \x09
#set_separator	,
#empty_field	(empty)
#unset_field	-
#path	x509
#open	2019-04-16-14-38-12
#fields	ts	id	certificate.version	certificate.serial	certificate.subject	certificate.issuer	certificate.not_valid_before	certificate.not_valid_after	certificate.key_alg	certificate.sig_alg	certificate.key_type	certificate.key_length	certificate.exponent	certificate.curve	san.dns	san.uri	san.email	san.ip	basic_constraints.ca	basic_constraints.path_len
#types	time	string	count	string	string	string	time	time	string	string	string	count	string	string	vector[string]	vector[string]	vector[string]	vector[addr]	bool	count
1313420293.461480	F4OqwT2CjESWAnnTL7	3	781440ACDCC0AA6F06FF4035A1FE69E3	CN=account.live.com,OU=Windows Live Operations,O=Microsoft Corporation,street=One Microsoft Way,L=Redmond,ST=Washington,postalCode=98052,C=US,serialNumber=600413485,businessCategory=Private Organization,jurisdictionST=Washington,jurisdictionC=US	CN=VeriSign Class 3 Extended Validation SSL CA,OU=Terms of use at https://www.verisign.com/rpa (c)06,OU=VeriSign Trust Network,O=VeriSign\\, Inc.,C=US	1306089000.000000	1337711399.000000	rsaEncryption	sha1WithRSAEncryption	rsa	2048	65537	-	account.live.com,signup.live.com	-	-	-	F	-
1313420293.461480	FvL4Pne3OIAj5O0Lb	3	5B7759C61784E15EC727C0329529286B	CN=VeriSign Class 3 Extended Validation SSL CA,OU=Terms of use at https://www.verisign.com/rpa (c)06,OU=VeriSign Trust Network,O=VeriSign\\, Inc.,C=US	CN=VeriSign Class 3 Public Primary Certification Authority - G5,OU=(c) 2006 VeriSign\\, Inc. - For authorized use only,OU=VeriSign Trust Network,O=VeriSign\\, Inc.,C=US	1162924200.000000	1478543399.000000	rsaEncryption	sha1WithRSAEncryption	rsa	2048	65537	-	-	-	-	-	T	0
1313420296.966673	FeB4d7dk5M7kLap7	3	781440ACDCC0AA6F06FF4035A1FE69E3	CN=account.live.com,OU=Windows Live Operations,O=Microsoft Corporation,street=One Microsoft Way,L=Redmond,ST=Washington,postalCode=98052,C=US,serialNumber=600413485,businessCategory=Private Organization,jurisdictionST=Washington,jurisdictionC=US	CN=VeriSign Class 3 Extended Validation SSL CA,OU=Terms of use at https://www.verisign.com/rpa (c)06,OU=VeriSign Trust Network,O=VeriSign\\, Inc.,C=US	1306089000.000000	1337711399.000000	rsaEncryption	sha1WithRSAEncryption	rsa	2048	65537	-	account.live.com,signup.live.com	-	-	-	F	-
1313420296.966673	FKuZfw2afVumAd3aI	3	5B7759C61784E15EC727C0329529286B	CN=VeriSign Class 3 Extended Validation SSL CA,OU=Terms of use at https://www.verisign.com/rpa (c)06,OU=VeriSign Trust Network,O=VeriSign\\, Inc.,C=US	CN=VeriSign Class 3 Public Primary Certification Authority - G5,OU=(c) 2006 VeriSign\\, Inc. - For authorized use only,OU=VeriSign Trust Network,O=VeriSign\\, Inc.,C=US	1162924200.000000	1478543399.000000	rsaEncryption	sha1WithRSAEncryption	rsa	2048	65537	-	-	-	-	-	T	0
1313420298.567752	F82q0A2TERuxhyvmfk	3	781440ACDCC0AA6F06FF4035A1FE69E3	CN=account.live.com,OU=Windows Live Operations,O=Microsoft Corporation,street=One Microsoft Way,L=Redmond,ST=Washington,postalCode=98052,C=US,serialNumber=600413485,businessCategory=Private Organization,jurisdictionST=Washington,jurisdictionC=US	CN=VeriSign Class 3 Extended Validation SSL CA,OU=Terms of use at https://www.verisign.com/rpa (c)06,OU=VeriSign Trust Network,O=VeriSign\\, Inc.,C=US	1306089000.000000	1337711399.000000	rsaEncryption	sha1WithRSAEncryption	rsa	2048	65537	-	account.live.com,signup.live.com	-	-	-	F	-
1313420298.567752	FurrIR26Fd4os4yuv2	3	5B7759C61784E15EC727C0329529286B	CN=VeriSign Class 3 Extended Validation SSL CA,OU=Terms of use at https://www.verisign.com/rpa (c)06,OU=VeriSign Trust Network,O=VeriSign\\, Inc.,C=US	CN=VeriSign Class 3 Public Primary Certification Authority - G5,OU=(c) 2006 VeriSign\\, Inc. - For authorized use only,OU=VeriSign Trust Network,O=VeriSign\\, Inc.,C=US	1162924200.000000	1478543399.000000	rsaEncryption	sha1WithRSAEncryption	rsa	2048	65537	-	-	-	-	-	T	0
1313420300.855377	FLU9FIeQKLHj0YYZ4	3	11EBCCFD000800020CF2	CN=mail.live.com,OU=WindowsLive,O=Microsoft,L=Redmond,ST=WA,C=US	CN=Microsoft Secure Server Authority,DC=redmond,DC=corp,DC=microsoft,DC=com	1303822964.000000	1366894964.000000	rsaEncryption	sha1WithRSAEncryption	rsa	1024	65537	-	*.mail.live.com,*.hotmail.com,hotmail.com,hotmail.msn.com,hotmail.co.jp,hotmail.co.uk,hotmail.live.com,www.hotmail.msn.com,mail.live.com,people.live.com,contacts.live.com	-	-	-	-	-
1313420300.855377	FbiSiG3HtDqrFheyX4	3	61033336000500000030	CN=Microsoft Secure Server Authority,DC=redmond,DC=corp,DC=microsoft,DC=com	CN=Microsoft Internet Authority	1274287410.000000	1400518410.000000	rsaEncryption	sha1WithRSAEncryption	rsa	2048	65537	-	-	-	-	-	T	0
1313420300.855377	FJGob64UVEiP15AZH8	3	07276202	CN=Microsoft Internet Authority	CN=GTE CyberTrust Global Root,OU=GTE CyberTrust Solutions\\, Inc.,O=GTE Corporation,C=US	1271248946.000000	1523709734.000000	rsaEncryption	sha1WithRSAEncryption	rsa	4096	65537	-	-	-	-	-	T	1
1313420302.737608	FWGC4B2m2rV7tEQaz7	3	11EBCCFD000800020CF2	CN=mail.live.com,OU=WindowsLive,O=Microsoft,L=Redmond,ST=WA,C=US	CN=Microsoft Secure Server Authority,DC=redmond,DC=corp,DC=microsoft,DC=com	1303822964.000000	1366894964.000000	rsaEncryption	sha1WithRSAEncryption	rsa	1024	65537	-	*.mail.live.com,*.hotmail.com,hotmail.com,hotmail.msn.com,hotmail.co.jp,hotmail.co.uk,hotmail.live.com,www.hotmail.msn.com,mail.live.com,people.live.com,contacts.live.com	-	-	-	-	-
1313420302.737608	FcF1FG3ccJ11jxb3r2	3	61033336000500000030	CN=Microsoft Secure Server Authority,DC=redmond,DC=corp,DC=microsoft,DC=com	CN=Microsoft Internet Authority	1274287410.000000	1400518410.000000	rsaEncryption	sha1WithRSAEncryption	rsa	2048	65537	-	-	-	-	-	T	0
1313420302.737608	Fvauja1QEK2RgviHj	3	07276202	CN=Microsoft Internet Authority	CN=GTE CyberTrust Global Root,OU=GTE CyberTrust Solutions\\, Inc.,O=GTE Corporation,C=US	1271248946.000000	1523709734.000000	rsaEncryption	sha1WithRSAEncryption	rsa	4096	65537	-	-	-	-	-	T	1
1313420304.584231	FzpkwL2I7FPvgbQIMf	3	11EBCCFD000800020CF2	CN=mail.live.com,OU=WindowsLive,O=Microsoft,L=Redmond,ST=WA,C=US	CN=Microsoft Secure Server Authority,DC=redmond,DC=corp,DC=microsoft,DC=com	1303822964.000000	1366894964.000000	rsaEncryption	sha1WithRSAEncryption	rsa	1024	65537	-	*.mail.live.com,*.hotmail.com,hotmail.com,hotmail.msn.com,hotmail.co.jp,hotmail.co.uk,hotmail.live.com,www.hotmail.msn.com,mail.live.com,people.live.com,contacts.live.com	-	-	-	-	-
1313420304.584231	FqAEDH298WPKm5t4Eg	3	61033336000500000030	CN=Microsoft Secure Server Authority,DC=redmond,DC=corp,DC=microsoft,DC=com	CN=Microsoft Internet Authority	1274287410.000000	1400518410.000000	rsaEncryption	sha1WithRSAEncryption	rsa	2048	65537	-	-	-	-	-	T	0
1313420304.584231	FmaREx1oBDUFN9qMYh	3	07276202	CN=Microsoft Internet Authority	CN=GTE CyberTrust Global Root,OU=GTE CyberTrust Solutions\\, Inc.,O=GTE Corporation,C=US	1271248946.000000	1523709734.000000	rsaEncryption	sha1WithRSAEncryption	rsa	4096	65537	-	-	-	-	-	T	1
1313420306.686979	FHyJJhmL1ws83YjH3	3	11EBCCFD000800020CF2	CN=mail.live.com,OU=WindowsLive,O=Microsoft,L=Redmond,ST=WA,C=US	CN=Microsoft Secure Server Authority,DC=redmond,DC=corp,DC=microsoft,DC=com	1303822964.000000	1366894964.000000	rsaEncryption	sha1WithRSAEncryption	rsa	1024	65537	-	*.mail.live.com,*.hotmail.com,hotmail.com,hotmail.msn.com,hotmail.co.jp,hotmail.co.uk,hotmail.live.com,www.hotmail.msn.com,mail.live.com,people.live.com,contacts.live.com	-	-	-	-	-
1313420306.686979	F9hXAI2ioCx9MHls5h	3	61033336000500000030	CN=Microsoft Secure Server Authority,DC=redmond,DC=corp,DC=microsoft,DC=com	CN=Microsoft Internet Authority	1274287410.000000	1400518410.000000	rsaEncryption	sha1WithRSAEncryption	rsa	2048	65537	-	-	-	-	-	T	0
1313420306.686979	FcmjJy2T07mwqbORC1	3	07276202	CN=Microsoft Internet Authority	CN=GTE CyberTrust Global Root,OU=GTE CyberTrust Solutions\\, Inc.,O=GTE Corporation,C=US	1271248946.000000	1523709734.000000	rsaEncryption	sha1WithRSAEncryption	rsa	4096	65537	-	-	-	-	-	T	1
1313420310.088207	FPPK6kiDqO7rLWWG7	3	11EBCCFD000800020CF2	CN=mail.live.com,OU=WindowsLive,O=Microsoft,L=Redmond,ST=WA,C=US	CN=Microsoft Secure Server Authority,DC=redmond,DC=corp,DC=microsoft,DC=com	1303822964.000000	1366894964.000000	rsaEncryption	sha1WithRSAEncryption	rsa	1024	65537	-	*.mail.live.com,*.hotmail.com,hotmail.com,hotmail.msn.com,hotmail.co.jp,hotmail.co.uk,hotmail.live.com,www.hotmail.msn.com,mail.live.com,people.live.com,contacts.live.com	-	-	-	-	-
1313420310.088207	FZ2Gf24xNVZnCplFZa	3	61033336000500000030	CN=Microsoft Secure Server Authority,DC=redmond,DC=corp,DC=microsoft,DC=com	CN=Microsoft Internet Authority	1274287410.000000	1400518410.000000	rsaEncryption	sha1WithRSAEncryption	rsa	2048	65537	-	-	-	-	-	T	0
1313420310.088207	FKcB2s13KFoWm1ZgG1	3	07276202	CN=Microsoft Internet Authority	CN=GTE CyberTrust Global Root,OU=GTE CyberTrust Solutions\\, Inc.,O=GTE Corporation,C=US	1271248946.000000	1523709734.000000	rsaEncryption	sha1WithRSAEncryption	rsa	4096	65537	-	-	-	-	-	T	1
1313420313.091834	FpRlYY1xbTPoNf3PDe	3	11EBCCFD000800020CF2	CN=mail.live.com,OU=WindowsLive,O=Microsoft,L=Redmond,ST=WA,C=US	CN=Microsoft Secure Server Authority,DC=redmond,DC=corp,DC=microsoft,DC=com	1303822964.000000	1366894964.000000	rsaEncryption	sha1WithRSAEncryption	rsa	1024	65537	-	*.mail.live.com,*.hotmail.com,hotmail.com,hotmail.msn.com,hotmail.co.jp,hotmail.co.uk,hotmail.live.com,www.hotmail.msn.com,mail.live.com,people.live.com,contacts.live.com	-	-	-	-	-
1313420313.091834	FW36wF44sqQD9Escc8	3	61033336000500000030	CN=Microsoft Secure Server Authority,DC=redmond,DC=corp,DC=microsoft,DC=com	CN=Microsoft Internet Authority	1274287410.000000	1400518410.000000	rsaEncryption	sha1WithRSAEncryption	rsa	2048	65537	-	-	-	-	-	T	0
1313420313.091834	FRQt674EBmOPCYdDQc	3	07276202	CN=Microsoft Internet Authority	CN=GTE CyberTrust Global Root,OU=GTE CyberTrust Solutions\\, Inc.,O=GTE Corporation,C=US	1271248946.000000	1523709734.000000	rsaEncryption	sha1WithRSAEncryption	rsa	4096	65537	-	-	-	-	-	T	1
1313420315.092491	F9t2cjyl6jhXKMaGk	3	11EBCCFD000800020CF2	CN=mail.live.com,OU=WindowsLive,O=Microsoft,L=Redmond,ST=WA,C=US	CN=Microsoft Secure Server Authority,DC=redmond,DC=corp,DC=microsoft,DC=com	1303822964.000000	1366894964.000000	rsaEncryption	sha1WithRSAEncryption	rsa	1024	65537	-	*.mail.live.com,*.hotmail.com,hotmail.com,hotmail.msn.com,hotmail.co.jp,hotmail.co.uk,hotmail.live.com,www.hotmail.msn.com,mail.live.com,people.live.com,contacts.live.com	-	-	-	-	-
1313420315.092491	FtSIau1shayM9WnEyl	3	61033336000500000030	CN=Microsoft Secure Server Authority,DC=redmond,DC=corp,DC=microsoft,DC=com	CN=Microsoft Internet Authority	1274287410.000000	1400518410.000000	rsaEncryption	sha1WithRSAEncryption	rsa	2048	65537	-	-	-	-	-	T	0
1313420315.092491	FizBO63N62wqxVoIT	3	07276202	CN=Microsoft Internet Authority	CN=GTE CyberTrust Global Root,OU=GTE CyberTrust Solutions\\, Inc.,O=GTE Corporation,C=US	1271248946.000000	1523709734.000000	rsaEncryption	sha1WithRSAEncryption	rsa	4096	65537	-	-	-	-	-	T	1
1313420317.996690	FSanIi1Io51OjZDO3b	3	11EBCCFD000800020CF2	CN=mail.live.com,OU=WindowsLive,O=Microsoft,L=Redmond,ST=WA,C=US	CN=Microsoft Secure Server Authority,DC=redmond,DC=corp,DC=microsoft,DC=com	1303822964.000000	1366894964.000000	rsaEncryption	sha1WithRSAEncryption	rsa	1024	65537	-	*.mail.live.com,*.hotmail.com,hotmail.com,hotmail.msn.com,hotmail.co.jp,hotmail.co.uk,hotmail.live.com,www.hotmail.msn.com,mail.live.com,people.live.com,contacts.live.com	-	-	-	-	-
1313420317.996690	FGaMt6trhqjg5QtAj	3	61033336000500000030	CN=Microsoft Secure Server Authority,DC=redmond,DC=corp,DC=microsoft,DC=com	CN=Microsoft Internet Authority	1274287410.000000	1400518410.000000	rsaEncryption	sha1WithRSAEncryption	rsa	2048	65537	-	-	-	-	-	T	0
1313420317.996690	F1obEGoLU412Nked7	3	07276202	CN=Microsoft Internet Authority	CN=GTE CyberTrust Global Root,OU=GTE CyberTrust Solutions\\, Inc.,O=GTE Corporation,C=US	1271248946.000000	1523709734.000000	rsaEncryption	sha1WithRSAEncryption	rsa	4096	65537	-	-	-	-	-	T	1
1313420321.402393	FnkGby4hTps6dBz97e	3	11EBCCFD000800020CF2	CN=mail.live.com,OU=WindowsLive,O=Microsoft,L=Redmond,ST=WA,C=US	CN=Microsoft Secure Server Authority,DC=redmond,DC=corp,DC=microsoft,DC=com	1303822964.000000	1366894964.000000	rsaEncryption	sha1WithRSAEncryption	rsa	1024	65537	-	*.mail.live.com,*.hotmail.com,hotmail.com,hotmail.msn.com,hotmail.co.jp,hotmail.co.uk,hotmail.live.com,www.hotmail.msn.com,mail.live.com,people.live.com,contacts.live.com	-	-	-	-	-
1313420321.402393	FboYwVIRAhqeLoSa	3	61033336000500000030	CN=Microsoft Secure Server Authority,DC=redmond,DC=corp,DC=microsoft,DC=com	CN=Microsoft Internet Authority	1274287410.000000	1400518410.000000	rsaEncryption	sha1WithRSAEncryption	rsa	2048	65537	-	-	-	-	-	T	0
1313420321.402393	FLxltdxbjp6dbhJH1	3	07276202	CN=Microsoft Internet Authority	CN=GTE CyberTrust Global Root,OU=GTE CyberTrust Solutions\\, Inc.,O=GTE Corporation,C=US	1271248946.000000	1523709734.000000	rsaEncryption	sha1WithRSAEncryption	rsa	4096	65537	-	-	-	-	-	T	1
1313420326.711183	FQh4Tn3MY2vGLw03O4	3	11EBCCFD000800020CF2	CN=mail.live.com,OU=WindowsLive,O=Microsoft,L=Redmond,ST=WA,C=US	CN=Microsoft Secure Server Authority,DC=redmond,DC=corp,DC=microsoft,DC=com	1303822964.000000	1366894964.000000	rsaEncryption	sha1WithRSAEncryption	rsa	1024	65537	-	*.mail.live.com,*.hotmail.com,hotmail.com,hotmail.msn.com,hotmail.co.jp,hotmail.co.uk,hotmail.live.com,www.hotmail.msn.com,mail.live.com,people.live.com,contacts.live.com	-	-	-	-	-
1313420326.711183	FATSDs4GcsDITtVVIf	3	61033336000500000030	CN=Microsoft Secure Server Authority,DC=redmond,DC=corp,DC=microsoft,DC=com	CN=Microsoft Internet Authority	1274287410.000000	1400518410.000000	rsaEncryption	sha1WithRSAEncryption	rsa	2048	65537	-	-	-	-	-	T	0
1313420326.711183	Ff7KYf1Z4F26p34Ccc	3	07276202	CN=Microsoft Internet Authority	CN=GTE CyberTrust Global Root,OU=GTE CyberTrust Solutions\\, Inc.,O=GTE Corporation,C=US	1271248946.000000	1523709734.000000	rsaEncryption	sha1WithRSAEncryption	rsa	4096	65537	-	-	-	-	-	T	1
1313420331.942098	FyXwQdwCqxjrnQagj	3	11EBCCFD000800020CF2	CN=mail.live.com,OU=WindowsLive,O=Microsoft,L=Redmond,ST=WA,C=US	CN=Microsoft Secure Server Authority,DC=redmond,DC=corp,DC=microsoft,DC=com	1303822964.000000	1366894964.000000	rsaEncryption	sha1WithRSAEncryption	rsa	1024	65537	-	*.mail.live.com,*.hotmail.com,hotmail.com,hotmail.msn.com,hotmail.co.jp,hotmail.co.uk,hotmail.live.com,www.hotmail.msn.com,mail.live.com,people.live.com,contacts.live.com	-	-	-	-	-
1313420331.942098	FRVZKo3vdopq0YkPq2	3	61033336000500000030	CN=Microsoft Secure Server Authority,DC=redmond,DC=corp,DC=microsoft,DC=com	CN=Microsoft Internet Authority	1274287410.000000	1400518410.000000	rsaEncryption	sha1WithRSAEncryption	rsa	2048	65537	-	-	-	-	-	T	0
1313420331.942098	FjTPF7F2crJXWJxsi	3	07276202	CN=Microsoft Internet Authority	CN=GTE CyberTrust Global Root,OU=GTE CyberTrust Solutions\\, Inc.,O=GTE Corporation,C=US	1271248946.000000	1523709734.000000	rsaEncryption	sha1WithRSAEncryption	rsa	4096	65537	-	-	-	-	-	T	1
1313420335.222199	FQAROg1HNGPoGFPdw5	3	11EBCCFD000800020CF2	CN=mail.live.com,OU=WindowsLive,O=Microsoft,L=Redmond,ST=WA,C=US	CN=Microsoft Secure Server Authority,DC=redmond,DC=corp,DC=microsoft,DC=com	1303822964.000000	1366894964.000000	rsaEncryption	sha1WithRSAEncryption	rsa	1024	65537	-	*.mail.live.com,*.hotmail.com,hotmail.com,hotmail.msn.com,hotmail.co.jp,hotmail.co.uk,hotmail.live.com,www.hotmail.msn.com,mail.live.com,people.live.com,contacts.live.com	-	-	-	-	-
1313420335.222199	FvwiBI2JtTHEz3C8wg	3	61033336000500000030	CN=Microsoft Secure Server Authority,DC=redmond,DC=corp,DC=microsoft,DC=com	CN=Microsoft Internet Authority	1274287410.000000	1400518410.000000	rsaEncryption	sha1WithRSAEncryption	rsa	2048	65537	-	-	-	-	-	T	0
1313420335.222199	FrFeYa2vIPGpxlUCJj	3	07276202	CN=Microsoft Internet Authority	CN=GTE CyberTrust Global Root,OU=GTE CyberTrust Solutions\\, Inc.,O=GTE Corporation,C=US	1271248946.000000	1523709734.000000	rsaEncryption	sha1WithRSAEncryption	rsa	4096	65537	-	-	-	-	-	T	1
1313420338.427421	FqUYR626iqRygefste	3	11EBCCFD000800020CF2	CN=mail.live.com,OU=WindowsLive,O=Microsoft,L=Redmond,ST=WA,C=US	CN=Microsoft Secure Server Authority,DC=redmond,DC=corp,DC=microsoft,DC=com	1303822964.000000	1366894964.000000	rsaEncryption	sha1WithRSAEncryption	rsa	1024	65537	-	*.mail.live.com,*.hotmail.com,hotmail.com,hotmail.msn.com,hotmail.co.jp,hotmail.co.uk,hotmail.live.com,www.hotmail.msn.com,mail.live.com,people.live.com,contacts.live.com	-	-	-	-	-
1313420338.427421	FeRSw2SMOA3gO46U4	3	61033336000500000030	CN=Microsoft Secure Server Authority,DC=redmond,DC=corp,DC=microsoft,DC=com	CN=Microsoft Internet Authority	1274287410.000000	1400518410.000000	rsaEncryption	sha1WithRSAEncryption	rsa	2048	65537	-	-	-	-	-	T	0
1313420338.427421	Fli2azBapO3DlcXNi	3	07276202	CN=Microsoft Internet Authority	CN=GTE CyberTrust Global Root,OU=GTE CyberTrust Solutions\\, Inc.,O=GTE Corporation,C=US	1271248946.000000	1523709734.000000	rsaEncryption	sha1WithRSAEncryption	rsa	4096	65537	-	-	-	-	-	T	1
1313420341.632406	FOx2Ng3NvvozAyAOj4	3	11EBCCFD000800020CF2	CN=mail.live.com,OU=WindowsLive,O=Microsoft,L=Redmond,ST=WA,C=US	CN=Microsoft Secure Server Authority,DC=redmond,DC=corp,DC=microsoft,DC=com	1303822964.000000	1366894964.000000	rsaEncryption	sha1WithRSAEncryption	rsa	1024	65537	-	*.mail.live.com,*.hotmail.com,hotmail.com,hotmail.msn.com,hotmail.co.jp,hotmail.co.uk,hotmail.live.com,www.hotmail.msn.com,mail.live.com,people.live.com,contacts.live.com	-	-	-	-	-
1313420341.632406	FA0SZV3KFXOxCwppY8	3	61033336000500000030	CN=Microsoft Secure Server Authority,DC=redmond,DC=corp,DC=microsoft,DC=com	CN=Microsoft Internet Authority	1274287410.000000	1400518410.000000	rsaEncryption	sha1WithRSAEncryption	rsa	2048	65537	-	-	-	-	-	T	0
1313420341.632406	Fcnt0u3uIgnjfHALag	3	07276202	CN=Microsoft Internet Authority	CN=GTE CyberTrust Global Root,OU=GTE CyberTrust Solutions\\, Inc.,O=GTE Corporation,C=US	1271248946.000000	1523709734.000000	rsaEncryption	sha1WithRSAEncryption	rsa	4096	65537	-	-	-	-	-	T	1
1313420344.634987	Fmre881ls8nGPSvXb1	3	11EBCCFD000800020CF2	CN=mail.live.com,OU=WindowsLive,O=Microsoft,L=Redmond,ST=WA,C=US	CN=Microsoft Secure Server Authority,DC=redmond,DC=corp,DC=microsoft,DC=com	1303822964.000000	1366894964.000000	rsaEncryption	sha1WithRSAEncryption	rsa	1024	65537	-	*.mail.live.com,*.hotmail.com,hotmail.com,hotmail.msn.com,hotmail.co.jp,hotmail.co.uk,hotmail.live.com,www.hotmail.msn.com,mail.live.com,people.live.com,contacts.live.com	-	-	-	-	-
1313420344.634987	FcluFs3CrOebUf0xe5	3	61033336000500000030	CN=Microsoft Secure Server Authority,DC=redmond,DC=corp,DC=microsoft,DC=com	CN=Microsoft Internet Authority	1274287410.000000	1400518410.000000	rsaEncryption	sha1WithRSAEncryption	rsa	2048	65537	-	-	-	-	-	T	0
1313420344.634987	FRv5pI1m4BCAV1Y2Vd	3	07276202	CN=Microsoft Internet Authority	CN=GTE CyberTrust Global Root,OU=GTE CyberTrust Solutions\\, Inc.,O=GTE Corporation,C=US	1271248946.000000	1523709734.000000	rsaEncryption	sha1WithRSAEncryption	rsa	4096	65537	-	-	-	-	-	T	1
1313420350.863404	FbI6141gw7NJiGPVb	3	11EBCCFD000800020CF2	CN=mail.live.com,OU=WindowsLive,O=Microsoft,L=Redmond,ST=WA,C=US	CN=Microsoft Secure Server Authority,DC=redmond,DC=corp,DC=microsoft,DC=com	1303822964.000000	1366894964.000000	rsaEncryption	sha1WithRSAEncryption	rsa	1024	65537	-	*.mail.live.com,*.hotmail.com,hotmail.com,hotmail.msn.com,hotmail.co.jp,hotmail.co.uk,hotmail.live.com,www.hotmail.msn.com,mail.live.com,people.live.com,contacts.live.com	-	-	-	-	-
1313420350.863404	FIUPMd1ksEK40KzCM7	3	61033336000500000030	CN=Microsoft Secure Server Authority,DC=redmond,DC=corp,DC=microsoft,DC=com	CN=Microsoft Internet Authority	1274287410.000000	1400518410.000000	rsaEncryption	sha1WithRSAEncryption	rsa	2048	65537	-	-	-	-	-	T	0
1313420350.863404	FqIO0QJJR0K6IkUX1	3	07276202	CN=Microsoft Internet Authority	CN=GTE CyberTrust Global Root,OU=GTE CyberTrust Solutions\\, Inc.,O=GTE Corporation,C=US	1271248946.000000	1523709734.000000	rsaEncryption	sha1WithRSAEncryption	rsa	4096	65537	-	-	-	-	-	T	1
1313420354.347667	FwxWs83u6w6jfJt827	3	11EBCCFD000800020CF2	CN=mail.live.com,OU=WindowsLive,O=Microsoft,L=Redmond,ST=WA,C=US	CN=Microsoft Secure Server Authority,DC=redmond,DC=corp,DC=microsoft,DC=com	1303822964.000000	1366894964.000000	rsaEncryption	sha1WithRSAEncryption	rsa	1024	65537	-	*.mail.live.com,*.hotmail.com,hotmail.com,hotmail.msn.com,hotmail.co.jp,hotmail.co.uk,hotmail.live.com,www.hotmail.msn.com,mail.live.com,people.live.com,contacts.live.com	-	-	-	-	-
1313420354.347667	FHVvoF4NEnHhf3qMfg	3	61033336000500000030	CN=Microsoft Secure Server Authority,DC=redmond,DC=corp,DC=microsoft,DC=com	CN=Microsoft Internet Authority	1274287410.000000	1400518410.000000	rsaEncryption	sha1WithRSAEncryption	rsa	2048	65537	-	-	-	-	-	T	0
1313420354.347667	FTifKH7OjfT8hJUd2	3	07276202	CN=Microsoft Internet Authority	CN=GTE CyberTrust Global Root,OU=GTE CyberTrust Solutions\\, Inc.,O=GTE Corporation,C=US	1271248946.000000	1523709734.000000	rsaEncryption	sha1WithRSAEncryption	rsa	4096	65537	-	-	-	-	-	T	1
1313420667.644418	FjmL9j1iXliS3xwx18	3	781440ACDCC0AA6F06FF4035A1FE69E3	CN=account.live.com,OU=Windows Live Operations,O=Microsoft Corporation,street=One Microsoft Way,L=Redmond,ST=Washington,postalCode=98052,C=US,serialNumber=600413485,businessCategory=Private Organization,jurisdictionST=Washington,jurisdictionC=US	CN=VeriSign Class 3 Extended Validation SSL CA,OU=Terms of use at https://www.verisign.com/rpa (c)06,OU=VeriSign Trust Network,O=VeriSign\\, Inc.,C=US	1306089000.000000	1337711399.000000	rsaEncryption	sha1WithRSAEncryption	rsa	2048	65537	-	account.live.com,signup.live.com	-	-	-	F	-
1313420667.644418	FOU57w3ll3nO88uzxg	3	5B7759C61784E15EC727C0329529286B	CN=VeriSign Class 3 Extended Validation SSL CA,OU=Terms of use at https://www.verisign.com/rpa (c)06,OU=VeriSign Trust Network,O=VeriSign\\, Inc.,C=US	CN=VeriSign Class 3 Public Primary Certification Authority - G5,OU=(c) 2006 VeriSign\\, Inc. - For authorized use only,OU=VeriSign Trust Network,O=VeriSign\\, Inc.,C=US	1162924200.000000	1478543399.000000	rsaEncryption	sha1WithRSAEncryption	rsa	2048	65537	-	-	-	-	-	T	0
1313420671.325338	FGhkWB3wk3mknsxO58	3	781440ACDCC0AA6F06FF4035A1FE69E3	CN=account.live.com,OU=Windows Live Operations,O=Microsoft Corporation,street=One Microsoft Way,L=Redmond,ST=Washington,postalCode=98052,C=US,serialNumber=600413485,businessCategory=Private Organization,jurisdictionST=Washington,jurisdictionC=US	CN=VeriSign Class 3 Extended Validation SSL CA,OU=Terms of use at https://www.verisign.com/rpa (c)06,OU=VeriSign Trust Network,O=VeriSign\\, Inc.,C=US	1306089000.000000	1337711399.000000	rsaEncryption	sha1WithRSAEncryption	rsa	2048	65537	-	account.live.com,signup.live.com	-	-	-	F	-
1313420671.325338	FPgX4D4U5x3z1IFn21	3	5B7759C61784E15EC727C0329529286B	CN=VeriSign Class 3 Extended Validation SSL CA,OU=Terms of use at https://www.verisign.com/rpa (c)06,OU=VeriSign Trust Network,O=VeriSign\\, Inc.,C=US	CN=VeriSign Class 3 Public Primary Certification Authority - G5,OU=(c) 2006 VeriSign\\, Inc. - For authorized use only,OU=VeriSign Trust Network,O=VeriSign\\, Inc.,C=US	1162924200.000000	1478543399.000000	rsaEncryption	sha1WithRSAEncryption	rsa	2048	65537	-	-	-	-	-	T	0
1313420672.916879	FQqZjdLxkxrxYnmrc	3	781440ACDCC0AA6F06FF4035A1FE69E3	CN=account.live.com,OU=Windows Live Operations,O=Microsoft Corporation,street=One Microsoft Way,L=Redmond,ST=Washington,postalCode=98052,C=US,serialNumber=600413485,businessCategory=Private Organization,jurisdictionST=Washington,jurisdictionC=US	CN=VeriSign Class 3 Extended Validation SSL CA,OU=Terms of use at https://www.verisign.com/rpa (c)06,OU=VeriSign Trust Network,O=VeriSign\\, Inc.,C=US	1306089000.000000	1337711399.000000	rsaEncryption	sha1WithRSAEncryption	rsa	2048	65537	-	account.live.com,signup.live.com	-	-	-	F	-
1313420672.916879	FjvmiIkaHD2mhGpY	3	5B7759C61784E15EC727C0329529286B	CN=VeriSign Class 3 Extended Validation SSL CA,OU=Terms of use at https://www.verisign.com/rpa (c)06,OU=VeriSign Trust Network,O=VeriSign\\, Inc.,C=US	CN=VeriSign Class 3 Public Primary Certification Authority - G5,OU=(c) 2006 VeriSign\\, Inc. - For authorized use only,OU=VeriSign Trust Network,O=VeriSign\\, Inc.,C=US	1162924200.000000	1478543399.000000	rsaEncryption	sha1WithRSAEncryption	rsa	2048	65537	-	-	-	-	-	T	0
1313420675.106132	F3igL91Lqa9k72gfWc	3	11EBCCFD000800020CF2	CN=mail.live.com,OU=WindowsLive,O=Microsoft,L=Redmond,ST=WA,C=US	CN=Microsoft Secure Server Authority,DC=redmond,DC=corp,DC=microsoft,DC=com	1303822964.000000	1366894964.000000	rsaEncryption	sha1WithRSAEncryption	rsa	1024	65537	-	*.mail.live.com,*.hotmail.com,hotmail.com,hotmail.msn.com,hotmail.co.jp,hotmail.co.uk,hotmail.live.com,www.hotmail.msn.com,mail.live.com,people.live.com,contacts.live.com	-	-	-	-	-
1313420675.106132	FoFWcP2X3ZGBeAtDYe	3	61033336000500000030	CN=Microsoft Secure Server Authority,DC=redmond,DC=corp,DC=microsoft,DC=com	CN=Microsoft Internet Authority	1274287410.000000	1400518410.000000	rsaEncryption	sha1WithRSAEncryption	rsa	2048	65537	-	-	-	-	-	T	0
1313420675.106132	FD5QIx1RlvSemgpsof	3	07276202	CN=Microsoft Internet Authority	CN=GTE CyberTrust Global Root,OU=GTE CyberTrust Solutions\\, Inc.,O=GTE Corporation,C=US	1271248946.000000	1523709734.000000	rsaEncryption	sha1WithRSAEncryption	rsa	4096	65537	-	-	-	-	-	T	1
1313420676.978740	Fdh5GL2YXGECylSoJb	3	11EBCCFD000800020CF2	CN=mail.live.com,OU=WindowsLive,O=Microsoft,L=Redmond,ST=WA,C=US	CN=Microsoft Secure Server Authority,DC=redmond,DC=corp,DC=microsoft,DC=com	1303822964.000000	1366894964.000000	rsaEncryption	sha1WithRSAEncryption	rsa	1024	65537	-	*.mail.live.com,*.hotmail.com,hotmail.com,hotmail.msn.com,hotmail.co.jp,hotmail.co.uk,hotmail.live.com,www.hotmail.msn.com,mail.live.com,people.live.com,contacts.live.com	-	-	-	-	-
1313420676.978740	FwzwYm46DJWPumxiMc	3	61033336000500000030	CN=Microsoft Secure Server Authority,DC=redmond,DC=corp,DC=microsoft,DC=com	CN=Microsoft Internet Authority	1274287410.000000	1400518410.000000	rsaEncryption	sha1WithRSAEncryption	rsa	2048	65537	-	-	-	-	-	T	0
1313420676.978740	FtxTin4kHtLcHbs6a5	3	07276202	CN=Microsoft Internet Authority	CN=GTE CyberTrust Global Root,OU=GTE CyberTrust Solutions\\, Inc.,O=GTE Corporation,C=US	1271248946.000000	1523709734.000000	rsaEncryption	sha1WithRSAEncryption	rsa	4096	65537	-	-	-	-	-	T	1
1313420678.661556	FJ0bf34srvxq4ujl5b	3	11EBCCFD000800020CF2	CN=mail.live.com,OU=WindowsLive,O=Microsoft,L=Redmond,ST=WA,C=US	CN=Microsoft Secure Server Authority,DC=redmond,DC=corp,DC=microsoft,DC=com	1303822964.000000	1366894964.000000	rsaEncryption	sha1WithRSAEncryption	rsa	1024	65537	-	*.mail.live.com,*.hotmail.com,hotmail.com,hotmail.msn.com,hotmail.co.jp,hotmail.co.uk,hotmail.live.com,www.hotmail.msn.com,mail.live.com,people.live.com,contacts.live.com	-	-	-	-	-
1313420678.661556	FkfaH43l6hKLzSTSg8	3	61033336000500000030	CN=Microsoft Secure Server Authority,DC=redmond,DC=corp,DC=microsoft,DC=com	CN=Microsoft Internet Authority	1274287410.000000	1400518410.000000	rsaEncryption	sha1WithRSAEncryption	rsa	2048	65537	-	-	-	-	-	T	0
1313420678.661556	FtRi391sDPE8SfFxu5	3	07276202	CN=Microsoft Internet Authority	CN=GTE CyberTrust Global Root,OU=GTE CyberTrust Solutions\\, Inc.,O=GTE Corporation,C=US	1271248946.000000	1523709734.000000	rsaEncryption	sha1WithRSAEncryption	rsa	4096	65537	-	-	-	-	-	T	1
1313420681.462225	FCxzf4OjxF1yXgOe2	3	11EBCCFD000800020CF2	CN=mail.live.com,OU=WindowsLive,O=Microsoft,L=Redmond,ST=WA,C=US	CN=Microsoft Secure Server Authority,DC=redmond,DC=corp,DC=microsoft,DC=com	1303822964.000000	1366894964.000000	rsaEncryption	sha1WithRSAEncryption	rsa	1024	65537	-	*.mail.live.com,*.hotmail.com,hotmail.com,hotmail.msn.com,hotmail.co.jp,hotmail.co.uk,hotmail.live.com,www.hotmail.msn.com,mail.live.com,people.live.com,contacts.live.com	-	-	-	-	-
1313420681.462225	Foukec1R5RGhWpr9n9	3	61033336000500000030	CN=Microsoft Secure Server Authority,DC=redmond,DC=corp,DC=microsoft,DC=com	CN=Microsoft Internet Authority	1274287410.000000	1400518410.000000	rsaEncryption	sha1WithRSAEncryption	rsa	2048	65537	-	-	-	-	-	T	0
1313420681.462225	FlPDc94SmTnzUJ7B08	3	07276202	CN=Microsoft Internet Authority	CN=GTE CyberTrust Global Root,OU=GTE CyberTrust Solutions\\, Inc.,O=GTE Corporation,C=US	1271248946.000000	1523709734.000000	rsaEncryption	sha1WithRSAEncryption	rsa	4096	65537	-	-	-	-	-	T	1
1313420684.855728	Fv6ahL9x4a4MIv6r5	3	11EBCCFD000800020CF2	CN=mail.live.com,OU=WindowsLive,O=Microsoft,L=Redmond,ST=WA,C=US	CN=Microsoft Secure Server Authority,DC=redmond,DC=corp,DC=microsoft,DC=com	1303822964.000000	1366894964.000000	rsaEncryption	sha1WithRSAEncryption	rsa	1024	65537	-	*.mail.live.com,*.hotmail.com,hotmail.com,hotmail.msn.com,hotmail.co.jp,hotmail.co.uk,hotmail.live.com,www.hotmail.msn.com,mail.live.com,people.live.com,contacts.live.com	-	-	-	-	-
1313420684.855728	FKps462RhIp3EAbDh3	3	61033336000500000030	CN=Microsoft Secure Server Authority,DC=redmond,DC=corp,DC=microsoft,DC=com	CN=Microsoft Internet Authority	1274287410.000000	1400518410.000000	rsaEncryption	sha1WithRSAEncryption	rsa	2048	65537	-	-	-	-	-	T	0
1313420684.855728	F50Aez2OaWiZE8ToX8	3	07276202	CN=Microsoft Internet Authority	CN=GTE CyberTrust Global Root,OU=GTE CyberTrust Solutions\\, Inc.,O=GTE Corporation,C=US	1271248946.000000	1523709734.000000	rsaEncryption	sha1WithRSAEncryption	rsa	4096	65537	-	-	-	-	-	T	1
1313420688.651910	FEVrlI2Y2R3vSdvxQ5	3	11EBCCFD000800020CF2	CN=mail.live.com,OU=WindowsLive,O=Microsoft,L=Redmond,ST=WA,C=US	CN=Microsoft Secure Server Authority,DC=redmond,DC=corp,DC=microsoft,DC=com	1303822964.000000	1366894964.000000	rsaEncryption	sha1WithRSAEncryption	rsa	1024	65537	-	*.mail.live.com,*.hotmail.com,hotmail.com,hotmail.msn.com,hotmail.co.jp,hotmail.co.uk,hotmail.live.com,www.hotmail.msn.com,mail.live.com,people.live.com,contacts.live.com	-	-	-	-	-
1313420688.651910	Fvcjmt1tzaG7SZE0Pf	3	61033336000500000030	CN=Microsoft Secure Server Authority,DC=redmond,DC=corp,DC=microsoft,DC=com	CN=Microsoft Internet Authority	1274287410.000000	1400518410.000000	rsaEncryption	sha1WithRSAEncryption	rsa	2048	65537	-	-	-	-	-	T	0
1313420688.651910	FJrqsN8qbjCS9kNNf	3	07276202	CN=Microsoft Internet Authority	CN=GTE CyberTrust Global Root,OU=GTE CyberTrust Solutions\\, Inc.,O=GTE Corporation,C=US	1271248946.000000	1523709734.000000	rsaEncryption	sha1WithRSAEncryption	rsa	4096	65537	-	-	-	-	-	T	1
1313420691.789599	FIzzhX3gsiCRGTWK32	3	11EBCCFD000800020CF2	CN=mail.live.com,OU=WindowsLive,O=Microsoft,L=Redmond,ST=WA,C=US	CN=Microsoft Secure Server Authority,DC=redmond,DC=corp,DC=microsoft,DC=com	1303822964.000000	1366894964.000000	rsaEncryption	sha1WithRSAEncryption	rsa	1024	65537	-	*.mail.live.com,*.hotmail.com,hotmail.com,hotmail.msn.com,hotmail.co.jp,hotmail.co.uk,hotmail.live.com,www.hotmail.msn.com,mail.live.com,people.live.com,contacts.live.com	-	-	-	-	-
1313420691.789599	FzZs44oEa9wC88rCj	3	61033336000500000030	CN=Microsoft Secure Server Authority,DC=redmond,DC=corp,DC=microsoft,DC=com	CN=Microsoft Internet Authority	1274287410.000000	1400518410.000000	rsaEncryption	sha1WithRSAEncryption	rsa	2048	65537	-	-	-	-	-	T	0
1313420691.789599	FdE66F3BJSBV9TuRI8	3	07276202	CN=Microsoft Internet Authority	CN=GTE CyberTrust Global Root,OU=GTE CyberTrust Solutions\\, Inc.,O=GTE Corporation,C=US	1271248946.000000	1523709734.000000	rsaEncryption	sha1WithRSAEncryption	rsa	4096	65537	-	-	-	-	-	T	1
1313420694.079745	FxgU151I2MUnNAJ379	3	11EBCCFD000800020CF2	CN=mail.live.com,OU=WindowsLive,O=Microsoft,L=Redmond,ST=WA,C=US	CN=Microsoft Secure Server Authority,DC=redmond,DC=corp,DC=microsoft,DC=com	1303822964.000000	1366894964.000000	rsaEncryption	sha1WithRSAEncryption	rsa	1024	65537	-	*.mail.live.com,*.hotmail.com,hotmail.com,hotmail.msn.com,hotmail.co.jp,hotmail.co.uk,hotmail.live.com,www.hotmail.msn.com,mail.live.com,people.live.com,contacts.live.com	-	-	-	-	-
1313420694.079745	F8GJQgDk8IsOQaXC8	3	61033336000500000030	CN=Microsoft Secure Server Authority,DC=redmond,DC=corp,DC=microsoft,DC=com	CN=Microsoft Internet Authority	1274287410.000000	1400518410.000000	rsaEncryption	sha1WithRSAEncryption	rsa	2048	65537	-	-	-	-	-	T	0
1313420694.079745	FUOg3yrJELQAGlCV1	3	07276202	CN=Microsoft Internet Authority	CN=GTE CyberTrust Global Root,OU=GTE CyberTrust Solutions\\, Inc.,O=GTE Corporation,C=US	1271248946.000000	1523709734.000000	rsaEncryption	sha1WithRSAEncryption	rsa	4096	65537	-	-	-	-	-	T	1
1313420697.092115	FDWs8t2985zYJLbL18	3	11EBCCFD000800020CF2	CN=mail.live.com,OU=WindowsLive,O=Microsoft,L=Redmond,ST=WA,C=US	CN=Microsoft Secure Server Authority,DC=redmond,DC=corp,DC=microsoft,DC=com	1303822964.000000	1366894964.000000	rsaEncryption	sha1WithRSAEncryption	rsa	1024	65537	-	*.mail.live.com,*.hotmail.com,hotmail.com,hotmail.msn.com,hotmail.co.jp,hotmail.co.uk,hotmail.live.com,www.hotmail.msn.com,mail.live.com,people.live.com,contacts.live.com	-	-	-	-	-
1313420697.092115	FRTTxT3ABJhZkQWa15	3	61033336000500000030	CN=Microsoft Secure Server Authority,DC=redmond,DC=corp,DC=microsoft,DC=com	CN=Microsoft Internet Authority	1274287410.000000	1400518410.000000	rsaEncryption	sha1WithRSAEncryption	rsa	2048	65537	-	-	-	-	-	T	0
1313420697.092115	FhuI2A2XvQWoHTEAm6	3	07276202	CN=Microsoft Internet Authority	CN=GTE CyberTrust Global Root,OU=GTE CyberTrust Solutions\\, Inc.,O=GTE Corporation,C=US	1271248946.000000	1523709734.000000	rsaEncryption	sha1WithRSAEncryption	rsa	4096	65537	-	-	-	-	-	T	1
1313420701.686658	FUhihi2dCWgOtE3xLb	3	11EBCCFD000800020CF2	CN=mail.live.com,OU=WindowsLive,O=Microsoft,L=Redmond,ST=WA,C=US	CN=Microsoft Secure Server Authority,DC=redmond,DC=corp,DC=microsoft,DC=com	1303822964.000000	1366894964.000000	rsaEncryption	sha1WithRSAEncryption	rsa	1024	65537	-	*.mail.live.com,*.hotmail.com,hotmail.com,hotmail.msn.com,hotmail.co.jp,hotmail.co.uk,hotmail.live.com,www.hotmail.msn.com,mail.live.com,people.live.com,contacts.live.com	-	-	-	-	-
1313420701.686658	F5DF6c3TBIOZOy9Ncg	3	61033336000500000030	CN=Microsoft Secure Server Authority,DC=redmond,DC=corp,DC=microsoft,DC=com	CN=Microsoft Internet Authority	1274287410.000000	1400518410.000000	rsaEncryption	sha1WithRSAEncryption	rsa	2048	65537	-	-	-	-	-	T	0
1313420701.686658	FVWNXf37gzZ7wp0YW4	3	07276202	CN=Microsoft Internet Authority	CN=GTE CyberTrust Global Root,OU=GTE CyberTrust Solutions\\, Inc.,O=GTE Corporation,C=US	1271248946.000000	1523709734.000000	rsaEncryption	sha1WithRSAEncryption	rsa	4096	65537	-	-	-	-	-	T	1
1313420704.391207	FJTC1yQbp4raykkU4	3	11EBCCFD000800020CF2	CN=mail.live.com,OU=WindowsLive,O=Microsoft,L=Redmond,ST=WA,C=US	CN=Microsoft Secure Server Authority,DC=redmond,DC=corp,DC=microsoft,DC=com	1303822964.000000	1366894964.000000	rsaEncryption	sha1WithRSAEncryption	rsa	1024	65537	-	*.mail.live.com,*.hotmail.com,hotmail.com,hotmail.msn.com,hotmail.co.jp,hotmail.co.uk,hotmail.live.com,www.hotmail.msn.com,mail.live.com,people.live.com,contacts.live.com	-	-	-	-	-
1313420704.391207	FmQjkb2QrjmU9c5Wj9	3	61033336000500000030	CN=Microsoft Secure Server Authority,DC=redmond,DC=corp,DC=microsoft,DC=com	CN=Microsoft Internet Authority	1274287410.000000	1400518410.000000	rsaEncryption	sha1WithRSAEncryption	rsa	2048	65537	-	-	-	-	-	T	0
1313420704.391207	FsQIj94b0QwW8Vm1f5	3	07276202	CN=Microsoft Internet Authority	CN=GTE CyberTrust Global Root,OU=GTE CyberTrust Solutions\\, Inc.,O=GTE Corporation,C=US	1271248946.000000	1523709734.000000	rsaEncryption	sha1WithRSAEncryption	rsa	4096	65537	-	-	-	-	-	T	1
1313420707.094527	FjR157343YPNL6UJ2h	3	11EBCCFD000800020CF2	CN=mail.live.com,OU=WindowsLive,O=Microsoft,L=Redmond,ST=WA,C=US	CN=Microsoft Secure Server Authority,DC=redmond,DC=corp,DC=microsoft,DC=com	1303822964.000000	1366894964.000000	rsaEncryption	sha1WithRSAEncryption	rsa	1024	65537	-	*.mail.live.com,*.hotmail.com,hotmail.com,hotmail.msn.com,hotmail.co.jp,hotmail.co.uk,hotmail.live.com,www.hotmail.msn.com,mail.live.com,people.live.com,contacts.live.com	-	-	-	-	-
1313420707.094527	Fat31B1EW469qCOaU6	3	61033336000500000030	CN=Microsoft Secure Server Authority,DC=redmond,DC=corp,DC=microsoft,DC=com	CN=Microsoft Internet Authority	1274287410.000000	1400518410.000000	rsaEncryption	sha1WithRSAEncryption	rsa	2048	65537	-	-	-	-	-	T	0
1313420707.094527	FPqiVS1wVVwcQ3pVz	3	07276202	CN=Microsoft Internet Authority	CN=GTE CyberTrust Global Root,OU=GTE CyberTrust Solutions\\, Inc.,O=GTE Corporation,C=US	1271248946.000000	1523709734.000000	rsaEncryption	sha1WithRSAEncryption	rsa	4096	65537	-	-	-	-	-	T	1
1313420712.403086	FEHZRr4zk99oVwh8Hg	3	11EBCCFD000800020CF2	CN=mail.live.com,OU=WindowsLive,O=Microsoft,L=Redmond,ST=WA,C=US	CN=Microsoft Secure Server Authority,DC=redmond,DC=corp,DC=microsoft,DC=com	1303822964.000000	1366894964.000000	rsaEncryption	sha1WithRSAEncryption	rsa	1024	65537	-	*.mail.live.com,*.hotmail.com,hotmail.com,hotmail.msn.com,hotmail.co.jp,hotmail.co.uk,hotmail.live.com,www.hotmail.msn.com,mail.live.com,people.live.com,contacts.live.com	-	-	-	-	-
1313420712.403086	F9md5z2WceJ1C7q0Lk	3	61033336000500000030	CN=Microsoft Secure Server Authority,DC=redmond,DC=corp,DC=microsoft,DC=com	CN=Microsoft Internet Authority	1274287410.000000	1400518410.000000	rsaEncryption	sha1WithRSAEncryption	rsa	2048	65537	-	-	-	-	-	T	0
1313420712.403086	F8Ueir1U45nC39Xcjf	3	07276202	CN=Microsoft Internet Authority	CN=GTE CyberTrust Global Root,OU=GTE CyberTrust Solutions\\, Inc.,O=GTE Corporation,C=US	1271248946.000000	1523709734.000000	rsaEncryption	sha1WithRSAEncryption	rsa	4096	65537	-	-	-	-	-	T	1
1313420715.119597	F9IlEt3UG2CnX2KEk	3	11EBCCFD000800020CF2	CN=mail.live.com,OU=WindowsLive,O=Microsoft,L=Redmond,ST=WA,C=US	CN=Microsoft Secure Server Authority,DC=redmond,DC=corp,DC=microsoft,DC=com	1303822964.000000	1366894964.000000	rsaEncryption	sha1WithRSAEncryption	rsa	1024	65537	-	*.mail.live.com,*.hotmail.com,hotmail.com,hotmail.msn.com,hotmail.co.jp,hotmail.co.uk,hotmail.live.com,www.hotmail.msn.com,mail.live.com,people.live.com,contacts.live.com	-	-	-	-	-
1313420715.119597	FJTbLs4gx5votGR8Na	3	61033336000500000030	CN=Microsoft Secure Server Authority,DC=redmond,DC=corp,DC=microsoft,DC=com	CN=Microsoft Internet Authority	1274287410.000000	1400518410.000000	rsaEncryption	sha1WithRSAEncryption	rsa	2048	65537	-	-	-	-	-	T	0
1313420715.119597	FiAmwquHuZpEVewKi	3	07276202	CN=Microsoft Internet Authority	CN=GTE CyberTrust Global Root,OU=GTE CyberTrust Solutions\\, Inc.,O=GTE Corporation,C=US	1271248946.000000	1523709734.000000	rsaEncryption	sha1WithRSAEncryption	rsa	4096	65537	-	-	-	-	-	T	1
1313420719.113772	F029n9p58UL0iC5ci	3	11EBCCFD000800020CF2	CN=mail.live.com,OU=WindowsLive,O=Microsoft,L=Redmond,ST=WA,C=US	CN=Microsoft Secure Server Authority,DC=redmond,DC=corp,DC=microsoft,DC=com	1303822964.000000	1366894964.000000	rsaEncryption	sha1WithRSAEncryption	rsa	1024	65537	-	*.mail.live.com,*.hotmail.com,hotmail.com,hotmail.msn.com,hotmail.co.jp,hotmail.co.uk,hotmail.live.com,www.hotmail.msn.com,mail.live.com,people.live.com,contacts.live.com	-	-	-	-	-
1313420719.113772	FGVLkfFOENDccwRAf	3	61033336000500000030	CN=Microsoft Secure Server Authority,DC=redmond,DC=corp,DC=microsoft,DC=com	CN=Microsoft Internet Authority	1274287410.000000	1400518410.000000	rsaEncryption	sha1WithRSAEncryption	rsa	2048	65537	-	-	-	-	-	T	0
1313420719.113772	FKacj6vpIkNoG2u3f	3	07276202	CN=Microsoft Internet Authority	CN=GTE CyberTrust Global Root,OU=GTE CyberTrust Solutions\\, Inc.,O=GTE Corporation,C=US	1271248946.000000	1523709734.000000	rsaEncryption	sha1WithRSAEncryption	rsa	4096	65537	-	-	-	-	-	T	1
1313420723.634600	FsOMbAY2F7IXKYUXc	3	11EBCCFD000800020CF2	CN=mail.live.com,OU=WindowsLive,O=Microsoft,L=Redmond,ST=WA,C=US	CN=Microsoft Secure Server Authority,DC=redmond,DC=corp,DC=microsoft,DC=com	1303822964.000000	1366894964.000000	rsaEncryption	sha1WithRSAEncryption	rsa	1024	65537	-	*.mail.live.com,*.hotmail.com,hotmail.com,hotmail.msn.com,hotmail.co.jp,hotmail.co.uk,hotmail.live.com,www.hotmail.msn.com,mail.live.com,people.live.com,contacts.live.com	-	-	-	-	-
1313420723.634600	F3CQGH34Ug9RpLffyh	3	61033336000500000030	CN=Microsoft Secure Server Authority,DC=redmond,DC=corp,DC=microsoft,DC=com	CN=Microsoft Internet Authority	1274287410.000000	1400518410.000000	rsaEncryption	sha1WithRSAEncryption	rsa	2048	65537	-	-	-	-	-	T	0
1313420723.634600	FgxXv23OqmvULPK0x4	3	07276202	CN=Microsoft Internet Authority	CN=GTE CyberTrust Global Root,OU=GTE CyberTrust Solutions\\, Inc.,O=GTE Corporation,C=US	1271248946.000000	1523709734.000000	rsaEncryption	sha1WithRSAEncryption	rsa	4096	65537	-	-	-	-	-	T	1
1313420726.475943	F3krVx2hOU5jRBsgD3	3	11EBCCFD000800020CF2	CN=mail.live.com,OU=WindowsLive,O=Microsoft,L=Redmond,ST=WA,C=US	CN=Microsoft Secure Server Authority,DC=redmond,DC=corp,DC=microsoft,DC=com	1303822964.000000	1366894964.000000	rsaEncryption	sha1WithRSAEncryption	rsa	1024	65537	-	*.mail.live.com,*.hotmail.com,hotmail.com,hotmail.msn.com,hotmail.co.jp,hotmail.co.uk,hotmail.live.com,www.hotmail.msn.com,mail.live.com,people.live.com,contacts.live.com	-	-	-	-	-
1313420726.475943	FbYMeFqdaJ4OYpEFg	3	61033336000500000030	CN=Microsoft Secure Server Authority,DC=redmond,DC=corp,DC=microsoft,DC=com	CN=Microsoft Internet Authority	1274287410.000000	1400518410.000000	rsaEncryption	sha1WithRSAEncryption	rsa	2048	65537	-	-	-	-	-	T	0
1313420726.475943	FDNmcqk32udXk27cc	3	07276202	CN=Microsoft Internet Authority	CN=GTE CyberTrust Global Root,OU=GTE CyberTrust Solutions\\, Inc.,O=GTE Corporation,C=US	1271248946.000000	1523709734.000000	rsaEncryption	sha1WithRSAEncryption	rsa	4096	65537	-	-	-	-	-	T	1
1313420731.673694	Flx55L2aMO59H8yWQe	3	11EBCCFD000800020CF2	CN=mail.live.com,OU=WindowsLive,O=Microsoft,L=Redmond,ST=WA,C=US	CN=Microsoft Secure Server Authority,DC=redmond,DC=corp,DC=microsoft,DC=com	1303822964.000000	1366894964.000000	rsaEncryption	sha1WithRSAEncryption	rsa	1024	65537	-	*.mail.live.com,*.hotmail.com,hotmail.com,hotmail.msn.com,hotmail.co.jp,hotmail.co.uk,hotmail.live.com,www.hotmail.msn.com,mail.live.com,people.live.com,contacts.live.com	-	-	-	-	-
1313420731.673694	F70eXi1P1f03MsjMu9	3	61033336000500000030	CN=Microsoft Secure Server Authority,DC=redmond,DC=corp,DC=microsoft,DC=com	CN=Microsoft Internet Authority	1274287410.000000	1400518410.000000	rsaEncryption	sha1WithRSAEncryption	rsa	2048	65537	-	-	-	-	-	T	0
1313420731.673694	FgelMU1zOmJC5CsrYj	3	07276202	CN=Microsoft Internet Authority	CN=GTE CyberTrust Global Root,OU=GTE CyberTrust Solutions\\, Inc.,O=GTE Corporation,C=US	1271248946.000000	1523709734.000000	rsaEncryption	sha1WithRSAEncryption	rsa	4096	65537	-	-	-	-	-	T	1
#close	2019-04-16-14-38-13
