#separator \x09
#set_separator	,
#empty_field	(empty)
#unset_field	-
#path	heartbeat
#open	2019-04-12-11-27-04
#fields	id.orig_h	id.orig_p	id.resp_h	id.resp_p	total_number	periodicity
#types	addr	port	addr	port	count	double
147.32.84.165	4790	212.117.171.138	65500	39	1.122816
147.32.84.165	2227	212.117.171.138	65500	36	0.77294
147.32.84.165	3050	64.12.168.40	587	58	1.832397
147.32.84.165	3056	205.188.186.137	587	35	13.844226
147.32.84.165	1685	212.117.171.138	65500	55	3.348566
147.32.84.165	1113	212.117.171.138	65500	87	2.256657
147.32.84.165	1552	64.12.175.136	587	34	1.050461
147.32.84.165	1533	64.12.168.40	587	39	1.194405
147.32.84.165	1661	212.117.171.138	65500	87	2.658209
147.32.84.165	1049	64.12.175.136	587	31	0.966163
147.32.84.165	1210	212.117.171.138	65500	36	0.938693
147.32.84.165	4694	205.188.186.137	587	28	0.876789
147.32.84.165	1769	64.12.168.40	587	28	0.877121
147.32.84.165	4842	212.117.171.138	65500	42	1.149643
147.32.84.165	2707	212.117.171.138	65500	62	1.407545
147.32.84.165	2089	212.117.171.138	65500	36	0.76067
147.32.84.165	2579	64.12.168.40	587	169	0.854282
147.32.84.165	2882	212.117.171.138	65500	36	1.006675
147.32.84.165	1443	64.12.168.40	587	28	0.880295
147.32.84.165	3662	212.117.171.138	65500	56	1.492957
147.32.84.165	1322	212.117.171.138	65500	81	0.007181
147.32.84.165	3069	212.117.171.138	65500	36	0.936795
147.32.84.165	1537	205.188.186.167	587	36	1.114705
147.32.84.165	1596	64.12.175.136	587	48	2.252801
147.32.84.165	2564	212.117.171.138	65500	84	2.376245
147.32.84.165	2082	64.12.168.40	587	86	3.19473
147.32.84.165	3391	212.117.171.138	65500	106	4.213581
147.32.84.165	1378	212.117.171.138	65500	36	0.909703
147.32.84.165	1786	212.117.171.138	65500	44	0.005359
147.32.84.165	2899	64.12.175.136	587	163	2.40441
147.32.84.165	1537	212.117.171.138	65500	59	1.655366
147.32.84.165	2061	212.117.171.138	65500	84	3.043557
147.32.84.165	4763	212.117.171.138	65500	92	2.738099
147.32.84.165	4592	212.117.171.138	65500	36	0.916828
147.32.84.165	1981	212.117.171.138	65500	34	2.970475
147.32.84.165	1789	205.188.186.167	587	44	3.645066
147.32.84.165	3404	205.188.186.137	587	44	2.84565
147.32.84.165	4452	205.188.186.167	587	48	2.301498
147.32.84.165	4964	64.12.168.40	587	31	0.858779
147.32.84.165	4903	212.117.171.138	65500	40	3.799617
147.32.84.165	3613	64.12.175.136	587	34	1.0381
147.32.84.165	1259	64.12.175.136	587	44	1.37162
147.32.84.165	4872	205.188.186.167	587	79	2.741615
147.32.84.165	4758	205.188.186.137	587	33	1.018694
147.32.84.165	3824	212.117.171.138	65500	36	0.843256
147.32.84.165	1547	205.188.186.137	587	28	0.879732
147.32.84.165	1689	64.12.168.40	587	28	0.837812
147.32.84.165	3072	212.117.171.138	65500	42	1.071558
147.32.84.165	1543	212.117.171.138	65500	69	2.644295
147.32.84.165	2471	212.117.171.138	65500	42	1.021753
147.32.84.165	2139	205.188.186.137	587	36	1.110241
147.32.84.165	1437	212.117.171.138	65500	36	0.945537
147.32.84.165	2159	64.12.175.136	587	28	0.880242
147.32.84.165	3759	205.188.186.137	587	48	1.567169
147.32.84.165	3299	205.188.186.167	587	28	0.879514
147.32.84.165	2240	205.188.186.137	587	28	0.875745
147.32.84.165	3341	212.117.171.138	65500	75	1.666842
147.32.84.165	2353	212.117.171.138	65500	35	1.011623
147.32.84.165	1379	205.188.186.137	587	44	1.666535
147.32.84.165	4521	64.12.175.136	587	89	4.243916
147.32.84.165	4041	205.188.186.167	587	27	7.871325
147.32.84.165	1365	212.117.171.138	65500	112	4.08523
147.32.84.165	4849	212.117.171.138	65500	78	1.861637
147.32.84.165	2474	212.117.171.138	65500	36	0.748843
147.32.84.165	2092	212.117.171.138	65500	91	6.447562
147.32.84.165	2545	212.117.171.138	65500	84	3.536604
147.32.84.165	1028	205.188.186.167	587	89	3.416232
147.32.84.165	1920	64.12.168.40	587	37	1.139208
147.32.84.165	4856	212.117.171.138	65500	84	2.173964
147.32.84.165	3527	212.117.171.138	65500	52	0.005391
147.32.84.165	1672	212.117.171.138	65500	39	0.97705
147.32.84.165	3074	205.188.186.137	587	28	0.880182
147.32.84.165	2674	64.12.168.40	587	34	1.056589
147.32.84.165	4926	205.188.186.167	587	83	4.331966
147.32.84.165	4862	205.188.186.167	587	77	2.433848
147.32.84.165	2182	212.117.171.138	65500	87	2.923931
147.32.84.165	2015	64.12.168.40	587	27	15.10009
147.32.84.165	2247	64.12.168.40	587	44	4.832588
147.32.84.165	4414	212.117.171.138	65500	51	2.009149
147.32.84.165	1885	205.188.186.137	587	27	14.596655
147.32.84.165	3447	212.117.171.138	65500	34	5.27305
147.32.84.165	4865	212.117.171.138	65500	84	3.0331
147.32.84.165	4915	212.117.171.138	65500	43	1.040674
147.32.84.165	4560	212.117.171.138	65500	39	0.794976
147.32.84.165	1114	64.12.168.40	587	72	2.049469
147.32.84.165	2510	64.12.175.136	587	28	0.87454
147.32.84.165	4811	212.117.171.138	65500	42	0.943514
147.32.84.165	2378	205.188.186.137	587	26	0.774431
147.32.84.165	2545	64.12.175.136	587	55	1.731109
147.32.84.165	1241	212.117.171.138	65500	48	1.402247
147.32.84.165	4057	64.12.175.136	587	28	0.879522
147.32.84.165	2602	212.117.171.138	65500	45	1.154287
147.32.84.165	3527	205.188.186.137	587	83	2.610481
147.32.84.165	2182	205.188.186.167	587	37	1.135888
147.32.84.165	3969	64.12.175.136	587	89	7.017101
147.32.84.165	2865	212.117.171.138	65500	90	5.524583
147.32.84.165	2716	212.117.171.138	65500	90	3.848854
147.32.84.165	1242	205.188.186.167	587	28	0.875801
147.32.84.165	4752	64.12.175.136	587	37	1.137334
147.32.84.165	4896	212.117.171.138	65500	45	1.106926
147.32.84.165	2951	212.117.171.138	65500	39	0.897419
147.32.84.165	4540	174.133.57.141	80	5	0.636854
147.32.84.165	1322	174.133.57.141	80	3	0.971521
147.32.84.165	4191	174.133.57.141	80	3	19.303149
147.32.84.165	2328	174.133.57.141	80	3	19.36059
147.32.84.165	4262	174.133.57.141	80	3	18.826718
147.32.84.165	3666	174.133.57.141	80	3	0.558447
147.32.84.165	2485	174.133.57.141	80	3	14.503343
147.32.84.165	1590	174.133.57.141	80	3	3.607496
147.32.84.165	4459	174.133.57.141	80	3	8.751254
147.32.84.165	1629	174.133.57.141	80	3	11.225402
147.32.84.165	4306	174.133.57.141	80	3	0.554283
147.32.84.165	3805	174.133.57.141	80	3	13.249648
147.32.84.165	4035	174.133.57.141	80	3	3.83293
147.32.84.165	4134	174.133.57.141	80	3	0.029029
147.32.84.165	1913	174.133.57.141	80	3	18.22414
147.32.84.165	4876	174.133.57.141	80	3	0.504333
147.32.84.165	4154	174.133.57.141	80	3	18.427294
147.32.84.165	4644	174.133.57.141	80	3	0.384715
147.32.84.165	1149	174.133.57.141	80	3	0.285282
147.32.84.165	2421	174.133.57.141	80	3	17.797084
147.32.84.165	1302	174.133.57.141	80	3	15.699145
147.32.84.165	2540	174.133.57.141	80	3	2.065717
147.32.84.165	4878	174.133.57.141	80	3	19.343506
147.32.84.165	4657	174.133.57.141	80	3	19.190278
147.32.84.165	3304	174.133.57.141	80	3	18.302391
147.32.84.165	2898	174.133.57.141	80	3	2.577698
147.32.84.165	2536	174.133.57.141	80	4	25.725811
147.32.84.165	1661	174.133.57.141	80	3	19.385974
147.32.84.165	3176	174.133.57.141	80	3	2.224346
147.32.84.165	4660	174.133.57.141	80	3	2.170802
147.32.84.165	4139	174.133.57.141	80	3	2.070981
147.32.84.165	3912	174.133.57.141	80	3	17.851293
147.32.84.165	3641	174.133.57.141	80	3	0.865104
147.32.84.165	3034	174.133.57.141	80	3	0.020402
147.32.84.165	4832	174.133.57.141	80	3	12.470639
147.32.84.165	1380	174.133.57.141	80	3	0.011898
147.32.84.165	4334	174.133.57.141	80	3	17.889947
147.32.84.165	4970	174.133.57.141	80	3	0.388255
147.32.84.165	2312	174.133.57.141	80	3	17.299333
147.32.84.165	3179	174.133.57.141	80	3	1.134086
147.32.84.165	3549	174.133.57.141	80	3	1.106214
147.32.84.165	4753	174.133.57.141	80	3	0.292205
147.32.84.165	3475	174.133.57.141	80	3	3.234481
147.32.84.165	1105	174.133.57.141	80	3	0.461744
147.32.84.165	1996	174.133.57.141	80	3	1.163463
147.32.84.165	2743	174.133.57.141	80	3	3.886499
147.32.84.165	3434	174.133.57.141	80	3	18.52196
147.32.84.165	4758	174.133.57.141	80	3	0.457757
147.32.84.165	4822	174.133.57.141	80	3	2.511055
147.32.84.165	1163	174.133.57.141	80	3	9.153266
147.32.84.165	4624	174.133.57.141	80	6	0.05969
147.32.84.165	3984	174.133.57.141	80	3	0.537315
147.32.84.165	3163	174.133.57.141	80	3	4.150572
147.32.84.165	4548	174.133.57.141	80	3	18.532817
147.32.84.165	3124	174.133.57.141	80	3	19.02311
147.32.84.165	4474	174.133.57.141	80	3	9.988277
147.32.84.165	4418	174.133.57.141	80	3	0.265508
147.32.84.165	4452	174.133.57.141	80	3	0.945324
147.32.84.165	3028	174.133.57.141	80	3	18.286777
147.32.84.165	4611	174.133.57.141	80	3	18.76982
147.32.84.165	2683	174.133.57.141	80	6	0.00175
147.32.84.165	4710	174.133.57.141	80	3	0.016854
147.32.84.165	2541	174.133.57.141	80	3	18.426269
147.32.84.165	3135	174.133.57.141	80	3	1.148742
147.32.84.165	3866	174.133.57.141	80	3	17.898166
147.32.84.165	4682	174.133.57.141	80	3	18.515092
147.32.84.165	2583	174.133.57.141	80	3	0.509072
147.32.84.165	3056	174.133.57.141	80	6	0.00065
147.32.84.165	1828	174.133.57.141	80	3	0.858204
147.32.84.165	3926	174.133.57.141	80	3	0.026669
147.32.84.165	2412	174.133.57.141	80	6	0.001452
147.32.84.165	4920	174.133.57.141	80	3	1.149086
147.32.84.165	1213	174.133.57.141	80	3	0.02039
147.32.84.165	4690	174.133.57.141	80	3	0.022123
147.32.84.165	3570	174.133.57.141	80	3	0.518382
147.32.84.165	4521	174.133.57.141	80	3	0.015719
147.32.84.165	4924	174.133.57.141	80	3	0.827104
147.32.84.165	4269	174.133.57.141	80	3	0.071088
147.32.84.165	4849	174.133.57.141	80	6	0.029465
147.32.84.165	3627	174.133.57.141	80	3	3.516293
147.32.84.165	3239	174.133.57.141	80	3	18.109261
147.32.84.165	4664	174.133.57.141	80	3	0.910678
147.32.84.165	1483	174.133.57.141	80	3	1.133711
147.32.84.165	3975	174.133.57.141	80	6	0.000654
147.32.84.165	2744	174.133.57.141	80	3	9.998865
147.32.84.165	3040	174.133.57.141	80	3	0.68846
147.32.84.165	2664	174.133.57.141	80	3	1.011516
147.32.84.165	4606	174.133.57.141	80	3	0.923807
147.32.84.165	4359	174.133.57.141	80	3	5.505668
147.32.84.165	3818	174.133.57.141	80	3	0.368628
147.32.84.165	3403	174.133.57.141	80	3	14.909865
147.32.84.165	2979	174.133.57.141	80	3	0.470526
147.32.84.165	1672	174.133.57.141	80	3	0.993098
147.32.84.165	1848	174.133.57.141	80	3	1.913938
147.32.84.165	3326	174.133.57.141	80	3	17.956657
147.32.84.165	1379	174.133.57.141	80	3	18.733715
147.32.84.165	3939	174.133.57.141	80	3	0.013357
147.32.84.165	3615	174.133.57.141	80	3	0.018701
147.32.84.165	3397	174.133.57.141	80	3	18.673331
147.32.84.165	4002	174.133.57.141	80	3	0.011319
147.32.84.165	4631	174.133.57.141	80	3	0.347874
147.32.84.165	2526	174.133.57.141	80	3	18.457893
147.32.84.165	2494	174.133.57.141	80	3	1.618611
147.32.84.165	1137	174.133.57.141	80	3	18.683895
147.32.84.165	4088	174.133.57.141	80	3	11.152296
147.32.84.165	2518	174.133.57.141	80	3	0.386433
147.32.84.165	3505	174.133.57.141	80	3	0.393256
147.32.84.165	1056	174.133.57.141	80	3	2.279386
147.32.84.165	4320	174.133.57.141	80	3	8.369926
147.32.84.165	2433	174.133.57.141	80	3	0.015429
147.32.84.165	3816	174.133.57.141	80	6	0.000729
147.32.84.165	4141	174.133.57.141	80	3	18.119875
147.32.84.165	1504	174.133.57.141	80	3	18.635277
147.32.84.165	4590	174.133.57.141	80	3	2.921528
147.32.84.165	4813	174.133.57.141	80	3	18.201021
147.32.84.165	1146	174.133.57.141	80	3	0.238456
147.32.84.165	3677	174.133.57.141	80	3	6.438004
147.32.84.165	4837	174.133.57.141	80	3	1.618388
147.32.84.165	4043	174.133.57.141	80	3	1.245529
147.32.84.165	3002	174.133.57.141	80	3	18.85216
147.32.84.165	2689	174.133.57.141	80	2	220752.842105
147.32.84.165	4539	174.133.57.141	80	4	25.488612
147.32.84.165	3061	174.133.57.141	80	3	16.517278
147.32.84.165	4383	174.133.57.141	80	3	0.380984
147.32.84.165	3281	174.133.57.141	80	3	1.799079
147.32.84.165	3249	174.133.57.141	80	3	0.221443
147.32.84.165	4210	174.133.57.141	80	6	0.000627
147.32.84.165	2176	174.133.57.141	80	3	5.889456
147.32.84.165	3144	174.133.57.141	80	3	0.322762
147.32.84.165	1761	174.133.57.141	80	9	0.000655
147.32.84.165	1052	174.133.57.141	80	3	18.500827
147.32.84.165	4712	174.133.57.141	80	3	5.407463
147.32.84.165	1246	174.133.57.141	80	3	0.276134
147.32.84.165	3764	174.133.57.141	80	3	0.25253
147.32.84.165	4543	174.133.57.141	80	3	0.011951
147.32.84.165	1666	174.133.57.141	80	3	10.835298
147.32.84.165	4964	174.133.57.141	80	3	10.281862
147.32.84.165	4786	174.133.57.141	80	3	7.156026
147.32.84.165	3466	174.133.57.141	80	3	17.114416
147.32.84.165	3713	174.133.57.141	80	3	5.587414
147.32.84.165	4605	174.133.57.141	80	3	0.286878
147.32.84.165	4084	174.133.57.141	80	3	18.552191
147.32.84.165	3767	174.133.57.141	80	3	0.336905
147.32.84.165	2855	174.133.57.141	80	3	0.027185
147.32.84.165	3037	174.133.57.141	80	3	1.159462
147.32.84.165	1142	174.133.57.141	80	3	4.342602
147.32.84.165	3632	174.133.57.141	80	3	18.30484
147.32.84.165	4793	174.133.57.141	80	3	0.531276
147.32.84.165	3091	174.133.57.141	80	3	19.374332
147.32.84.165	4884	174.133.57.141	80	3	2.917131
147.32.84.165	2499	174.133.57.141	80	3	3.35194
147.32.84.165	4078	174.133.57.141	80	6	0.007018
147.32.84.165	1091	174.133.57.141	80	3	19.080803
147.32.84.165	4653	174.133.57.141	80	3	17.857778
147.32.84.165	3220	174.133.57.141	80	3	1.575306
147.32.84.165	3723	174.133.57.141	80	3	0.013915
147.32.84.165	1026	174.133.57.141	80	3	1.555338
147.32.84.165	4125	174.133.57.141	80	3	18.788374
147.32.84.165	3057	174.133.57.141	80	3	0.311974
147.32.84.165	3352	174.133.57.141	80	3	14.913947
147.32.84.165	4858	174.133.57.141	80	3	1.594027
147.32.84.165	3919	174.133.57.141	80	6	0.002542
147.32.84.165	1090	174.133.57.141	80	3	0.345124
147.32.84.165	3289	174.133.57.141	80	4	0.017893
147.32.84.165	3212	174.133.57.141	80	3	18.352898
147.32.84.165	4427	174.133.57.141	80	3	18.351078
147.32.84.165	1488	174.133.57.141	80	3	2.225132
147.32.84.165	4581	174.133.57.141	80	3	0.605674
147.32.84.165	3979	174.133.57.141	80	6	0.145526
147.32.84.165	4583	174.133.57.141	80	3	10.90921
147.32.84.165	4576	174.133.57.141	80	3	1.703798
147.32.84.165	4918	174.133.57.141	80	3	0.858578
147.32.84.165	4663	174.133.57.141	80	3	0.766739
147.32.84.165	4358	174.133.57.141	80	3	17.994689
147.32.84.165	3469	174.133.57.141	80	3	1.174979
147.32.84.165	4718	174.133.57.141	80	3	0.496896
147.32.84.165	2083	174.133.57.141	80	3	0.651587
147.32.84.165	4823	174.133.57.141	80	3	0.442469
147.32.84.165	3575	174.133.57.141	80	6	0.000654
147.32.84.165	3845	174.133.57.141	80	3	17.787674
147.32.84.165	4806	174.133.57.141	80	3	0.011327
147.32.84.165	3747	174.133.57.141	80	3	18.397684
147.32.84.165	3884	174.133.57.141	80	3	0.914518
147.32.84.165	1524	174.133.57.141	80	3	0.650913
147.32.84.165	1108	174.133.57.141	80	6	0.008904
147.32.84.165	4233	174.133.57.141	80	3	0.576416
147.32.84.165	3487	174.133.57.141	80	3	1.797841
147.32.84.165	2520	174.133.57.141	80	3	0.615302
147.32.84.165	4553	174.133.57.141	80	3	0.518777
147.32.84.165	3301	174.133.57.141	80	3	1.33809
147.32.84.165	3539	174.133.57.141	80	3	18.047624
147.32.84.165	3798	174.133.57.141	80	3	0.021028
147.32.84.165	2891	174.133.57.141	80	3	2.286296
147.32.84.165	3360	174.133.57.141	80	3	3.5595
147.32.84.165	2652	174.133.57.141	80	3	6.67245
147.32.84.165	2148	174.133.57.141	80	6	0.010457
147.32.84.165	4828	174.133.57.141	80	6	0.000672
147.32.84.165	3945	174.133.57.141	80	3	18.495334
147.32.84.165	3365	174.133.57.141	80	3	0.482235
147.32.84.165	4103	174.133.57.141	80	3	17.799727
147.32.84.165	1114	174.133.57.141	80	3	17.707572
147.32.84.165	2272	174.133.57.141	80	3	8.621061
147.32.84.165	4252	174.133.57.141	80	3	18.483163
147.32.84.165	2655	174.133.57.141	80	3	1.023873
147.32.84.165	4774	174.133.57.141	80	3	19.359964
147.32.84.165	4157	174.133.57.141	80	3	0.344173
147.32.84.165	4272	174.133.57.141	80	6	0.000648
147.32.84.165	2243	174.133.57.141	80	3	0.670371
147.32.84.165	1221	174.133.57.141	80	3	18.53522
147.32.84.165	3853	174.133.57.141	80	3	9.168512
147.32.84.165	1986	174.133.57.141	80	3	0.89948
147.32.84.165	4586	174.133.57.141	80	3	5.152577
147.32.84.165	4765	174.133.57.141	80	3	7.896691
147.32.84.165	3118	174.133.57.141	80	3	0.424089
147.32.84.165	4475	174.133.57.141	80	3	19.131806
147.32.84.165	2627	174.133.57.141	80	3	0.546776
147.32.84.165	3023	174.133.57.141	80	3	18.173445
147.32.84.165	3111	174.133.57.141	80	3	5.45377
147.32.84.165	2545	174.133.57.141	80	3	0.720307
147.32.84.165	4079	174.133.57.141	80	3	0.566958
147.32.84.165	2736	174.133.57.141	80	3	0.317097
147.32.84.165	1450	174.133.57.141	80	3	17.882269
147.32.84.165	2026	174.133.57.141	80	3	18.512477
147.32.84.165	1948	174.133.57.141	80	3	17.999322
147.32.84.165	4684	174.133.57.141	80	3	1.024291
147.32.84.165	4263	174.133.57.141	80	3	18.481099
147.32.84.165	3483	174.133.57.141	80	3	18.332923
147.32.84.165	4445	174.133.57.141	80	3	3.231634
147.32.84.165	3390	174.133.57.141	80	3	4.809588
147.32.84.165	1526	174.133.57.141	80	3	9.744277
147.32.84.165	3341	174.133.57.141	80	3	19.444029
147.32.84.165	4415	174.133.57.141	80	3	8.769209
147.32.84.165	4894	174.133.57.141	80	6	0.000661
147.32.84.165	3533	174.133.57.141	80	5	1.609403
147.32.84.165	1904	174.133.57.141	80	3	0.014293
147.32.84.165	2788	174.133.57.141	80	3	2.520532
147.32.84.165	4312	174.133.57.141	80	3	18.170926
147.32.84.165	3854	174.133.57.141	80	6	0.002524
147.32.84.165	3426	174.133.57.141	80	3	1.021903
147.32.84.165	3259	174.133.57.141	80	3	8.216457
147.32.84.165	4328	174.133.57.141	80	3	17.779782
147.32.84.165	2980	174.133.57.141	80	3	1.91573
147.32.84.165	4705	174.133.57.141	80	3	6.532061
147.32.84.165	3740	174.133.57.141	80	3	0.5773
147.32.84.165	3167	174.133.57.141	80	3	18.483163
147.32.84.165	4304	174.133.57.141	80	3	0.028475
147.32.84.165	4530	174.133.57.141	80	3	0.307001
147.32.84.165	2505	174.133.57.141	80	3	18.750213
147.32.84.165	2530	174.133.57.141	80	3	3.57702
147.32.84.165	4772	174.133.57.141	80	6	0.000638
147.32.84.165	4507	174.133.57.141	80	3	12.4899
147.32.84.165	1624	174.133.57.141	80	3	17.633993
147.32.84.165	4790	174.133.57.141	80	3	0.484001
147.32.84.165	4127	174.133.57.141	80	3	2.081921
147.32.84.165	1767	174.133.57.141	80	3	18.29135
147.32.84.165	3616	174.133.57.141	80	3	0.930925
147.32.84.165	2366	174.133.57.141	80	3	2.31957
147.32.84.165	3186	174.133.57.141	80	3	0.712238
147.32.84.165	2274	174.133.57.141	80	3	0.667617
147.32.84.165	2344	174.133.57.141	80	3	18.945489
147.32.84.165	2956	174.133.57.141	80	3	0.009657
147.32.84.165	3725	174.133.57.141	80	3	0.42694
147.32.84.165	3268	174.133.57.141	80	3	4.293885
147.32.84.165	3595	174.133.57.141	80	3	2.761058
147.32.84.165	1712	174.133.57.141	80	3	18.039267
147.32.84.165	3864	174.133.57.141	80	3	1.347971
147.32.84.165	4087	174.133.57.141	80	3	0.443472
147.32.84.165	4962	174.133.57.141	80	3	4.146442
147.32.84.165	3407	174.133.57.141	80	3	11.890043
147.32.84.165	4063	174.133.57.141	80	3	18.768896
147.32.84.165	3480	174.133.57.141	80	5	1.451061
147.32.84.165	2975	174.133.57.141	80	3	7.075603
147.32.84.165	2146	174.133.57.141	80	3	3.703567
147.32.84.165	2180	174.133.57.141	80	3	7.696333
147.32.84.165	4361	174.133.57.141	80	3	11.637429
147.32.84.165	3682	174.133.57.141	80	3	0.027939
147.32.84.165	4168	174.133.57.141	80	3	13.380141
147.32.84.165	3433	174.133.57.141	80	3	0.265523
147.32.84.165	2102	174.133.57.141	80	3	1.435976
147.32.84.165	4914	174.133.57.141	80	3	18.447475
147.32.84.165	1478	174.133.57.141	80	3	18.095276
147.32.84.165	3651	174.133.57.141	80	4	0.025194
#close	2019-04-12-11-27-05
