#separator \x09
#set_separator	,
#empty_field	(empty)
#unset_field	-
#path	dnsSummary
#open	2019-04-16-14-38-12
#fields	srcAddr	totalDnsReq	totalDnsFail	uniqueIpAddr	failureTypesDetected	freqOfFailedReq	totalNXDomainFail	totalServFail	totalRefused	dstAddr	failedDomain	passedDomain
#types	addr	count	count	count	set[string]	count	count	count	count	set[addr]	set[string]	set[string]
147.32.84.165	786	0	1668	(empty)	0	0	0	0	195.113.232.98,98.139.175.224,60.249.196.250,67.231.152.30,199.239.254.18,64.12.168.40,124.108.116.109,216.32.181.178,85.233.160.20,204.232.236.136,194.90.9.19,84.40.69.185,65.54.188.110,66.205.82.138,211.48.62.135,12.41.25.137,207.115.21.24,200.161.192.230,98.137.54.237,82.226.248.139,202.144.65.81,61.17.216.21,220.244.226.66,64.184.32.11,199.191.107.186,193.165.254.6,80.12.242.15,64.26.60.153,12.130.194.63,195.113.232.96,208.97.132.72,89.215.49.24,50.90.246.189,79.119.209.87,190.53.151.16,202.153.104.23,217.34.4.225,82.99.253.2,119.205.212.219,65.54.234.75,119.154.75.69,213.33.87.13,65.55.33.167,183.83.68.80,88.250.200.14,24.248.74.41,203.228.172.80,65.254.254.55,174.143.82.88,210.212.182.243,111.88.1.3,213.228.128.59,80.72.0.17,98.136.59.15,193.109.254.67,61.9.189.122,116.111.184.69,195.38.96.39,66.46.183.251,221.204.246.113,212.103.213.179,201.91.126.75,210.75.13.174,207.25.182.22,82.223.191.131,189.21.116.60,204.209.205.52,66.94.238.147,154.32.105.132,222.252.117.126,85.130.81.228,208.81.237.241,209.65.160.73,68.1.17.3,10.123.229.200,62.24.139.61,128.121.85.2,178.123.248.251,129.121.213.2,216.104.13.1,199.91.33.184,17.148.17.44,134.129.200.67,77.123.72.98,168.95.5.40,199.81.10.62,208.65.145.3,67.231.152.86,194.1.150.66,113.36.206.49,212.170.236.87,83.17.186.77,117.96.96.152,76.162.254.120,200.53.110.7,195.22.8.78,91.142.218.33,194.42.191.233,83.152.81.217,78.56.242.233,95.59.69.146,168.215.102.170,115.184.216.90,111.88.33.160,64.33.108.52,128.120.32.9,61.196.224.4,198.103.152.58,115.137.250.215,124.108.96.211,178.90.6.143,42.201.161.145,125.5.96.59,31.192.109.161,196.46.196.3,46.4.35.23,198.36.33.47,61.17.216.27,202.80.173.5,65.54.188.94,222.124.57.154,195.113.232.81,71.6.145.17,66.210.5.50,89.117.75.85,64.18.6.11,80.98.191.57,188.173.49.47,69.170.135.92,118.23.180.72,61.17.216.83,205.188.103.1,209.59.1.34,80.12.242.53,195.102.249.132,213.111.249.148,128.242.120.13,74.125.47.104,200.147.36.13,208.97.132.226,195.113.232.74,182.2.117.2,64.18.7.11,61.89.186.155,217.19.237.57,216.99.131.14,65.15.167.21,208.85.113.25,190.55.176.74,74.125.43.27,210.72.66.210,195.75.94.104,202.108.252.141,27.255.33.216,64.136.52.37,120.63.27.163,123.192.69.237,17.148.17.43,85.158.140.115,217.163.21.34,140.242.16.25,119.252.147.10,208.65.144.12,173.227.207.20,168.95.5.43,217.163.21.39,46.148.34.36,202.9.159.34,218.102.53.145,207.115.20.22,64.12.90.66,195.113.232.82,147.32.84.171,216.17.3.48,217.163.21.41,67.231.144.94,173.236.31.226,66.83.9.58,217.19.237.56,65.55.196.251,132.156.37.17,98.137.54.238,114.108.154.199,147.187.10.115,64.29.145.47,165.21.74.116,193.53.188.112,24.113.32.85,216.72.94.42,80.67.18.126,111.88.4.78,65.54.188.126,217.72.192.149,64.12.75.1,194.248.190.66,61.153.193.110,59.113.54.127,2.21.100.16,210.254.56.38,207.115.37.20,174.123.157.154,147.32.84.227,168.95.5.38,202.214.41.103,12.168.25.160,65.55.92.184,69.89.22.116,199.217.10.203,219.232.102.130,204.232.236.212,216.19.250.52,148.177.3.75,67.231.144.15,41.240.106.5,114.57.53.106,61.17.216.5,209.240.204.25,60.190.222.139,193.23.181.44,209.59.172.38,216.129.105.37,69.10.230.70,61.28.22.201,78.249.161.87,186.195.32.2,61.17.216.66,216.163.188.54,218.248.255.243,67.197.202.25,220.143.177.200,61.17.216.26,222.85.179.42,200.104.20.184,189.212.138.52,65.54.188.72,68.67.185.217,207.57.18.92,212.11.70.8,167.230.202.15,204.232.236.147,66.111.4.73,117.204.65.119,68.67.179.210,74.217.252.32,86.126.237.212,117.224.216.244,119.154.70.142,207.173.161.49,114.108.154.235,1.22.16.143,69.174.249.99,210.172.136.101,207.115.36.21,161.58.18.5,213.198.91.195,204.93.183.38,195.75.94.108,212.71.32.151,202.109.187.132,117.207.5.248,193.26.47.132,64.207.20.170,65.248.165.249,87.54.12.92,222.23.100.200,133.6.157.199,125.99.28.64,208.67.179.142,193.220.38.27,91.214.134.197,198.96.178.145,206.71.181.7,89.37.108.104,117.204.66.49,193.252.22.143,121.130.190.26,200.61.224.170,91.195.118.50,202.3.77.187,122.1.235.148,209.85.229.27,118.34.142.43,206.225.164.234,207.115.36.22,193.252.22.186,216.146.33.3,168.95.5.19,64.71.138.88,61.17.216.70,207.171.178.25,218.102.53.146,196.25.36.7,119.154.131.100,113.255.129.49,200.51.80.21,212.4.22.148,158.35.238.238,192.85.154.103,64.4.62.124,69.56.128.163,212.143.86.2,208.40.195.230,168.243.220.232,61.17.216.4,77.93.250.148,212.44.160.11,12.102.252.75,24.225.8.70,194.90.181.145,80.191.187.36,218.93.203.210,216.82.254.19,147.32.80.9,208.65.145.12,114.120.50.74,203.183.218.25,117.224.41.27,74.6.140.31,216.130.129.13,83.244.190.250,114.147.58.71,216.163.188.57,66.7.198.148,65.55.16.187,202.75.53.173,62.209.146.67,186.90.182.143,74.125.232.202,139.177.224.65,135.11.29.14,80.156.94.72,196.192.41.18,147.32.84.181,60.243.38.64,59.48.7.162,193.203.96.3,46.34.171.217,209.155.69.5,117.198.86.115,74.53.45.213,162.39.147.49,74.208.5.21,59.78.181.188,147.32.84.255,65.55.37.104,200.37.120.19,131.114.68.99,68.232.1.54,173.0.129.6,218.102.53.138,206.192.47.244,72.14.213.27,82.230.33.111,58.185.204.84,1.23.71.127,218.102.53.139,157.55.0.137,74.125.148.10,59.90.211.177,82.137.248.20,216.82.249.131,150.186.92.225,178.122.240.223,38.102.130.89,216.37.174.40,217.219.211.243,190.79.152.22,195.113.232.88,205.166.218.186,93.116.154.250,89.185.128.130,194.106.220.35,64.18.6.14,194.78.113.90,216.237.221.34,93.115.96.73,220.181.12.68,67.69.240.18,217.19.6.21,82.94.214.131,205.235.52.11,139.146.141.66,184.182.187.229,46.137.48.58,58.252.109.242,64.126.190.250,69.36.172.66,95.172.94.59,199.228.142.101,94.84.48.26,206.54.145.17,204.126.122.130,68.67.185.210,98.139.214.154,93.95.14.32,81.214.131.58,61.111.244.129,109.200.239.148,195.156.147.12,122.28.30.180,89.104.217.10,216.237.221.35,163.5.42.12,111.92.129.242,66.94.9.228,217.115.140.156,207.115.20.23,95.172.94.25,174.128.246.102,203.84.189.77,74.117.114.70,68.70.191.253,206.122.102.56,218.167.197.117,189.42.60.60,62.80.17.242,212.227.15.186,70.177.48.84,208.65.144.13,222.124.4.102,76.162.254.118,66.111.4.71,202.95.154.126,24.71.223.11,207.121.52.205,147.32.84.79,109.169.13.223,74.109.203.154,64.59.134.8,61.177.120.254,12.30.177.163,168.95.5.63,75.101.43.8,84.229.67.56,186.110.109.63,195.113.232.90,78.67.175.163,49.114.102.212,94.100.28.114,81.246.116.94,66.104.196.196,87.101.19.76,168.61.70.66,64.191.223.39,168.95.5.17,213.171.250.211,64.18.7.10,65.254.254.52,93.178.250.214,201.67.253.254,74.125.232.207,86.123.31.54,195.186.18.144,213.239.225.190,208.70.229.65,192.96.15.125,206.81.145.5,165.212.65.113,79.132.91.208,74.125.159.27,59.113.50.63,66.97.46.122,93.177.158.45,118.23.109.24,195.113.232.97,111.88.77.58,202.179.178.24,193.200.87.21,195.137.161.8,81.199.182.101,213.188.129.249,220.109.216.226,64.71.138.81,68.67.185.206,184.82.148.44,208.65.145.1,61.19.247.49,89.234.65.83,65.55.92.168,61.8.238.61,20.132.170.5,88.135.194.91,74.125.67.27,200.80.144.166,78.67.172.123,200.73.70.106,66.96.142.51,59.48.7.168,77.95.34.201,76.3.238.11,192.135.120.61,211.108.79.150,117.242.61.2,211.43.197.191,121.243.139.53,117.240.58.147,130.164.80.6,61.17.216.84,210.212.164.162,194.153.145.93,205.178.132.80,194.242.61.28,74.125.93.27,78.67.174.222,87.120.166.58,93.17.128.25,200.75.140.165,204.13.78.130,207.115.21.22,195.113.232.99,27.255.59.64,80.12.242.9,208.83.68.171,85.17.178.157,212.64.225.221,66.135.59.76,50.22.198.84,198.66.164.253,15.192.0.85,81.92.237.18,66.175.58.41,204.11.209.99,110.36.112.54,111.88.72.94,207.250.230.21,68.125.255.102,190.107.110.169,196.38.113.23,112.205.182.117,195.200.70.95,209.80.41.20,94.126.18.110,165.21.74.114,81.169.145.101,190.77.235.75,61.17.216.17,64.12.138.161,74.125.232.199,66.234.224.28,220.128.63.37,78.67.179.71,61.17.216.29,95.100.248.97,67.197.150.10,193.198.2.3,210.22.89.136,95.172.94.64,195.70.198.9,206.183.28.116,201.249.127.77,65.55.8.8,74.117.116.123,212.57.28.123,89.103.213.96,67.231.152.94,147.32.84.102,130.126.121.163,60.190.223.75,82.57.200.133,174.37.196.55,74.125.235.51,74.125.232.217,195.113.232.75,46.137.82.8,128.121.125.217,193.49.37.67,218.241.209.6,193.180.251.37,83.140.31.145,198.189.24.40,61.17.216.10,200.143.5.118,216.82.255.3,77.127.115.133,188.72.216.51,61.17.216.19,124.125.21.140,216.82.254.51,216.40.42.4,208.81.192.129,61.17.216.11,178.122.100.224,66.175.58.43,115.240.73.24,194.79.77.130,64.12.90.65,61.9.168.122,194.67.211.76,83.148.82.159,208.73.211.25,50.56.83.42,12.53.250.91,70.243.11.177,218.102.23.149,183.177.144.152,64.4.52.169,83.229.4.202,132.215.17.4,64.12.90.34,194.116.198.95,208.177.94.80,121.31.253.12,201.160.226.207,89.38.42.156,205.188.59.193,210.211.186.114,74.85.246.28,74.125.39.27,173.241.240.6,205.188.156.193,130.220.2.1,46.4.36.120,79.125.30.17,124.123.147.161,119.205.212.218,61.17.216.23,60.243.195.59,84.16.230.244,130.164.80.5,63.209.10.244,124.123.106.96,216.99.131.24,83.133.119.197,216.146.33.1,72.21.214.199,184.82.155.107,194.116.198.18,196.23.143.5,204.127.217.16,41.203.208.3,94.245.121.179,91.121.35.190,221.207.141.60,212.27.48.6,158.93.190.116,207.171.184.25,129.178.88.73,74.125.232.204,77.239.2.219,79.171.16.207,111.253.202.95,122.224.6.164,205.188.159.42,96.125.162.28,216.129.105.32,62.149.128.163,67.134.69.73,190.5.69.5,66.39.2.32,208.84.201.167,217.163.21.40,193.252.22.184,117.207.7.56,216.52.121.177,74.125.232.201,114.59.51.188,66.250.143.7,173.247.252.128,117.207.49.181,62.225.75.210,213.254.204.150,46.98.119.151,124.108.110.37,59.113.49.130,178.133.29.206,27.255.59.65,147.32.84.218,77.238.167.32,24.14.193.250,65.254.0.15,184.82.147.251,178.151.76.180,217.31.49.69,142.55.2.48,193.109.255.147,190.136.214.243,203.231.153.200,76.225.135.7,178.150.146.54,117.204.73.246,79.175.253.7,195.113.232.83,83.211.221.197,212.12.200.158,173.0.137.227,64.236.55.17,194.224.239.225,91.199.63.28,213.171.216.66,89.236.212.138,118.136.111.104,66.220.20.53,217.163.21.36,170.64.0.111,210.212.69.248,50.22.179.232,115.85.238.119,143.166.83.183,195.47.215.249,202.164.57.158,213.161.194.44,67.210.124.15,182.0.125.28,209.86.93.229,217.5.218.234,208.77.218.115,89.108.150.205,80.39.72.120,155.230.10.252,200.144.74.27,208.88.6.52,72.1.178.70,212.50.160.72,210.143.100.95,65.54.165.177,79.140.237.191,204.136.80.100,65.61.209.25,94.177.75.85,112.110.99.104,59.103.193.24,117.205.50.80,209.191.88.254,143.107.171.10,207.193.249.2,72.18.139.34,129.121.69.100,24.248.72.37,114.58.187.40,196.2.147.247,195.76.55.75,95.111.235.248,60.249.39.108,178.121.31.113,213.165.64.102,213.146.65.56,117.204.73.9,64.22.125.242,85.29.156.118,216.120.251.187,80.79.101.252,32.97.110.149,72.20.15.61,122.1.236.75,218.102.53.148,74.125.148.13,85.158.143.35,203.131.74.12,160.15.14.8,155.97.153.147,184.82.155.108,207.126.147.12,221.209.60.2,220.181.15.198,195.75.94.98,69.59.192.56,77.238.14.21,94.127.76.180,196.2.13.199,74.117.116.126,117.224.242.30,61.82.197.229,216.240.32.91,117.201.114.47,119.63.45.53,114.27.11.170,70.45.60.8,218.102.53.136,189.242.185.74,64.136.164.4,217.70.144.134,122.50.126.89,195.88.191.59,65.55.37.72,174.36.246.56,117.204.65.177,94.127.76.60,74.55.28.130,213.171.216.114,182.177.235.90,98.129.185.3,208.84.244.133,41.239.162.145,173.212.188.85,173.51.1.83,76.96.30.116,208.81.160.62,71.74.56.243,207.130.95.54,216.82.249.99,68.6.19.3,41.223.57.75,76.96.62.116,132.72.23.17,94.137.182.140,128.241.52.1,86.105.106.56,74.125.47.27,69.145.248.1,199.26.167.215,98.174.234.233,218.200.225.22,117.196.25.55,210.211.247.235,209.85.148.103,69.16.175.10,59.48.7.167,27.255.59.59,70.32.97.26,216.137.61.37,129.41.169.122,67.139.134.251,210.212.249.136,64.184.32.12,196.8.104.18,190.37.39.215,24.173.24.142,61.17.216.12,67.231.144.172,205.188.186.167,216.33.127.20,113.20.239.202,66.194.105.178,168.144.68.74,216.163.188.58,117.204.74.3,65.54.186.77,64.94.38.226,180.241.97.224,203.167.0.18,62.242.235.202,95.172.94.12,118.23.178.141,94.63.150.52,205.252.14.32,115.178.17.183,50.23.235.4,202.162.96.13,27.255.59.70,139.78.133.14,195.113.232.91,173.227.91.231,72.55.128.124,196.34.191.132,206.71.177.151,95.172.94.28,170.224.49.13,168.110.95.1,146.141.15.6,180.222.136.3,216.31.209.17,216.195.70.217,141.194.10.236,4.59.182.109,202.221.162.79,58.143.125.236,174.143.82.64,209.85.225.27,193.252.22.92,109.169.13.214,208.65.145.2,204.232.236.252,200.152.177.10,124.123.111.216,119.235.1.2,216.211.128.3,79.113.153.241,101.0.32.121,216.82.250.179,202.134.61.252,206.46.232.11,209.249.12.184,209.128.52.124,66.210.204.5,74.125.232.220,209.212.246.20,194.71.21.134,4.78.154.138,64.29.145.41,89.46.59.46,93.116.166.52,67.201.31.224,207.191.230.136,213.4.149.253,68.67.185.215,208.88.253.155,163.21.59.10,198.185.24.87,82.205.221.102,180.242.10.201,166.70.74.114,200.32.104.82,129.1.11.86,194.150.245.6,61.17.216.90,124.81.2.139,208.67.174.100,174.143.82.68,137.207.32.19,61.17.216.6,111.88.31.68,168.95.5.24,59.160.18.195,216.82.242.131,202.67.240.102,208.43.248.158,190.114.77.46,50.16.214.154,63.251.204.102,12.151.21.99,145.253.153.250,216.68.8.214,74.6.136.244,143.166.224.193,212.74.114.146,205.188.156.219,193.17.222.131,85.13.145.159,188.121.52.56,202.112.126.217,200.252.60.27,218.189.208.34,182.72.80.42,72.22.190.201,80.12.242.62,87.239.184.119,74.121.139.103,210.87.250.90,203.151.232.194,202.128.0.48,174.120.23.67,209.63.234.36,193.120.142.92,221.130.69.202,87.248.203.253,93.184.220.20,212.23.3.96,69.175.13.98,217.34.4.226,67.32.158.217,66.64.39.125,64.236.79.229,173.203.122.118,178.137.128.94,67.15.185.102,173.203.27.138,119.154.183.214,202.106.32.73,58.252.109.240,202.131.27.71,190.151.53.33,89.162.236.14,192.118.80.172,72.249.30.78,207.166.192.59,203.127.37.73,60.173.109.42,196.218.117.248,95.172.94.54,216.117.176.60,199.59.163.170,64.12.90.33,184.82.147.252,65.254.254.50,77.238.175.247,184.154.10.50,202.153.32.135,203.127.83.175,67.195.168.230,217.199.111.74,80.12.204.241,222.23.80.7,195.200.70.104,62.20.233.128,128.8.10.90,116.228.139.242,193.251.214.113,61.177.181.139,76.162.254.116,124.217.225.31,216.82.250.99,216.178.72.158,207.172.157.50,165.21.74.113,92.112.3.72,116.73.89.104,69.63.169.161,150.135.40.105,186.202.4.42,130.56.66.57,61.17.216.15,213.123.26.151,96.9.142.101,89.111.177.200,65.54.186.10,74.208.5.3,209.104.5.188,64.12.175.136,58.215.78.1,218.102.53.147,77.127.115.2,98.139.54.60,184.154.89.154,91.214.162.182,195.88.117.3,151.151.26.142,64.88.163.230,68.67.185.203,220.164.82.72,120.138.121.194,143.248.116.51,142.20.63.50,59.94.194.59,184.164.142.139,210.210.26.203,207.115.36.20,194.151.221.83,200.213.30.210,111.92.142.42,62.149.128.160,208.73.210.29,200.27.124.197,62.85.117.16,201.2.114.148,178.123.195.112,149.170.190.144,209.85.227.27,208.15.91.13,178.124.94.49,122.127.64.127,87.248.203.254,147.32.84.95,178.122.22.89,61.17.216.22,207.69.189.219,64.204.118.35,217.163.21.35,74.125.47.106,64.207.35.180,12.7.232.25,209.143.0.180,200.41.237.69,125.206.180.223,66.218.245.15,66.76.67.68,110.45.215.57,217.110.110.231,46.228.164.11,125.206.187.30,85.185.226.13,204.127.208.75,168.95.5.66,216.178.66.140,205.188.186.137,92.47.5.149,208.254.9.199,209.86.93.227,122.55.28.99,31.42.162.114,63.249.123.251,94.63.150.20,41.212.41.40,70.42.33.241,118.143.56.171,80.232.168.198,74.62.189.165,71.224.19.142,92.47.55.219,216.2.23.3,184.106.213.57,64.12.138.152,210.172.144.10,184.172.33.106,168.95.5.74,180.251.135.144,64.12.90.1,76.9.124.68,66.240.127.98,222.156.254.70,66.94.237.64,208.65.145.11,168.95.6.70,202.86.18.246,207.126.147.13,213.163.160.52,69.13.193.154,202.141.255.46,199.228.142.102,64.82.228.16,78.153.48.99,112.152.241.216,200.75.0.70,59.48.7.173,65.54.188.78,68.232.129.163,202.152.60.3,122.155.7.8,119.154.130.96,68.71.11.7,173.192.170.88,76.162.254.117,202.146.123.1,80.75.1.194,212.61.26.38,220.194.21.2,64.20.55.244,83.99.172.192,119.152.220.218,219.113.19.146,74.125.232.200,94.127.76.145,195.7.102.21,213.188.129.251,165.21.74.122,157.205.238.165,194.0.130.47,219.145.198.122,216.99.131.25,200.29.244.194,203.169.255.16,68.67.179.212,207.44.238.147,178.123.10.51,59.99.153.96,212.85.96.2,210.158.149.183,64.166.203.34,213.46.255.2,216.120.27.21,163.192.2.18,207.232.61.93,208.97.132.210,74.125.113.27,74.125.232.205,74.219.102.100,64.20.45.186,10.145.129.176,209.12.101.219,178.125.172.9,196.0.35.154,115.98.215.108,202.238.83.11,201.193.44.200,74.84.86.134,85.158.139.179,220.134.142.48,67.214.158.5,62.149.128.65,208.84.66.226,209.92.166.35,112.110.18.151,200.196.152.9,207.5.72.155,91.209.164.25,68.67.179.209,193.252.22.65,173.241.240.4,46.98.83.57,219.94.105.182,64.235.144.69,178.122.89.175,205.188.190.2,207.115.37.22,63.68.14.34,98.126.71.122,82.232.103.247,210.63.177.6,115.60.169.243,68.67.185.212,194.232.133.220,74.125.232.223,207.115.21.20,123.194.145.64,74.3.164.222,65.54.188.109,212.77.101.4,193.253.177.101,85.158.138.179,66.102.142.26,163.247.62.61,168.95.5.75,201.131.48.26,65.55.92.136,61.17.216.87,74.121.137.122,205.188.59.194,194.2.0.84,213.188.129.250,208.65.46.65,167.127.98.30,211.189.96.7,109.86.117.4,64.18.7.13,94.245.120.86,66.206.23.60,184.191.34.121,98.137.34.115,211.23.95.50,212.117.171.138,116.193.138.134,74.6.136.65,213.4.149.227,65.254.39.86,195.14.4.101,213.165.64.100,193.25.197.210,151.151.26.152,98.143.147.237,195.50.106.142,168.61.70.72,200.95.144.74,85.185.8.55,204.232.236.158,61.17.216.3,67.231.144.184,85.119.248.7,206.251.228.150,24.113.32.75,200.206.208.45,132.72.23.16,194.177.33.227,113.193.156.31,201.65.242.60,95.100.248.96,195.90.97.34,93.180.230.38,68.67.185.200,200.72.136.190,212.79.118.91,200.69.107.59,168.95.5.68,207.115.36.23,174.129.193.6,84.25.41.150,202.129.54.51,64.12.139.193,150.217.5.100,67.215.65.132,116.193.128.2,211.41.82.134,117.204.64.121,209.202.252.61,216.82.242.115,168.95.6.53,178.122.247.101,174.37.108.140,93.177.150.210,94.100.176.20,218.106.61.139,65.101.196.37,196.205.12.237,81.169.145.102,80.98.120.34,85.66.209.80,64.18.5.10,86.101.54.123,61.17.216.28,63.165.126.52,61.17.216.16,64.18.4.10,218.94.106.74,202.44.45.5,77.79.4.96,74.125.45.27,207.115.11.16,212.227.15.150,80.237.177.89,78.227.180.250,204.255.212.244,64.85.60.138,12.71.42.136,98.139.175.225,190.72.90.65,201.132.220.14,80.12.242.148,68.67.38.68,67.217.162.198,203.188.197.119,165.212.8.32,64.191.223.38,61.167.116.133,202.2.82.207,200.155.87.21,208.81.96.33,91.83.45.27,221.226.242.228,208.84.244.136,79.135.138.210,95.155.98.55,209.59.195.20,175.100.132.205,208.185.174.190,68.67.185.216,200.168.146.138,201.165.227.159,202.172.28.162,206.225.164.180,198.41.9.32,72.4.117.21,85.248.69.94,62.149.128.154,94.95.56.138,155.212.33.146,118.82.64.32,38.111.4.126,212.27.48.7,38.113.116.194,167.138.239.95,65.55.72.199,117.197.21.10,202.108.67.233,65.55.88.22,114.134.80.211,207.126.147.10,193.180.251.59,63.251.249.49,78.67.169.66,220.181.12.60,67.231.144.206,67.231.144.128,209.86.93.226,65.55.92.152,128.250.158.190,159.134.198.135,109.87.192.82,69.64.58.224,200.54.151.131,217.119.50.249,205.188.146.193,196.13.158.33,89.39.65.2,216.99.131.26,74.125.235.50,112.200.131.200,168.95.5.14,67.231.144.57,66.96.142.52,217.163.21.38,216.251.32.71,24.40.8.248,113.21.74.83,94.23.70.37,95.111.183.113,74.117.116.87,139.175.54.239,64.136.173.100,65.54.89.114,61.17.216.2,204.93.223.146,202.137.234.30,204.89.9.25,200.48.7.157,205.188.190.1,94.228.131.151,77.120.37.254,74.125.157.27,202.162.229.17,12.44.217.140,60.190.222.152,82.227.106.170,27.251.19.95,77.246.37.4,72.23.14.21,204.94.92.91,195.238.5.129,207.8.173.121,68.67.185.209,148.123.15.75,85.158.140.211,122.218.153.19,217.56.59.218,122.121.68.110,74.121.136.216,184.82.148.43,89.200.164.105,91.217.56.204,208.47.184.2,71.87.21.66,194.109.24.138,80.72.108.202,84.103.237.8,119.154.117.193,164.139.14.160,84.229.253.152,80.179.55.150,195.245.230.83,95.134.172.70,64.71.138.82,67.231.152.184,77.238.177.9,216.97.236.88,61.111.244.139,208.43.37.100,155.70.32.98,64.182.71.51,81.17.254.9,116.90.164.27,216.137.61.189,87.85.78.99,77.89.69.181,213.75.3.134,187.32.102.6,213.33.174.74,112.205.111.114,216.99.131.32,173.241.240.7,194.109.24.134,68.41.173.2,50.58.22.130,68.202.89.226,168.95.5.2,65.205.78.57,62.249.220.75,195.74.38.202,74.125.148.11,66.175.58.42,119.154.129.1,95.58.134.226,68.67.179.211,173.193.193.4,198.170.105.119,212.108.161.22,204.227.183.215,195.145.27.145,209.85.143.27,68.67.179.213,117.204.76.152,65.200.108.44,174.123.49.130,66.196.94.104,209.86.93.228,192.48.157.12,207.130.95.53,81.80.40.173,46.137.16.7,217.72.192.188,78.67.174.155,218.102.53.137,220.64.7.31,192.58.128.30,122.1.235.147,68.67.185.214,72.52.166.118,85.158.228.111,46.24.73.184,209.106.160.100,178.90.22.31,64.6.245.203,210.159.5.11,27.255.59.54,115.148.196.99,204.2.197.201,84.96.93.164,178.125.53.75,205.200.74.75,85.158.140.195,208.43.248.154,68.67.185.218,200.42.208.2,66.234.224.26,74.125.232.218,89.41.159.184,178.165.97.227,65.55.37.88,206.222.227.2,92.240.244.181,80.121.155.140,147.32.84.68,216.136.51.62,62.146.106.39,212.64.225.220,74.125.232.219,195.130.137.67,64.98.36.4,209.66.101.140,211.236.185.10,198.77.13.239,67.231.152.222,67.69.240.20,66.111.4.72,210.211.186.109,97.65.6.83,212.94.223.189,67.231.144.228,200.206.215.4,61.17.216.69,93.123.109.154,74.117.116.125,218.201.21.157,207.115.37.21,210.168.35.4,168.95.5.30,67.212.76.149,192.52.233.80,190.204.173.239,216.82.253.99,61.147.99.179,93.62.191.197,195.29.149.180,150.70.88.129,208.89.132.27,64.251.10.158,60.199.114.56,165.21.74.118,210.211.186.4,178.137.7.22,65.55.13.243,65.54.186.47,195.130.90.41,207.115.20.21,82.94.250.60,178.133.119.252,72.167.238.201,98.154.67.160,81.19.46.25,168.95.5.42,85.158.176.233,62.113.176.118,192.33.4.12,62.24.74.140,212.52.133.252,65.168.16.5,67.108.254.7,68.67.185.205,109.201.233.98,121.197.253.23,203.237.240.2,94.52.57.11,195.113.232.89,118.86.12.94,89.161.158.92,66.45.104.194,64.136.44.37,209.198.194.11,93.17.128.16,66.180.193.211,64.12.90.98,216.193.128.40,89.228.163.103,115.97.135.112,64.59.192.8,74.121.138.200,192.217.192.252,208.104.244.55,204.232.236.140,89.105.202.5,161.58.16.34,61.17.216.20,74.125.244.11,217.22.246.78,66.94.236.34,61.26.131.206,67.19.72.206,165.21.74.121,217.163.21.37,209.85.148.147,209.223.88.11,12.154.96.68,64.191.223.42,89.43.210.7,82.206.239.241,14.98.87.197,67.69.240.17,218.103.17.209,208.97.132.221,62.178.214.33,203.183.81.32,62.128.193.152,205.188.103.2,74.6.140.64,123.236.248.177,195.23.53.116,74.53.90.155,190.122.143.202,88.154.52.66,46.175.169.64,208.65.144.2,216.99.131.21,74.50.52.43,212.115.192.99,207.214.111.53,64.18.4.11,79.170.244.140,216.54.161.40,132.247.146.65,65.55.37.120,95.172.94.50,171.67.219.73,216.157.130.15,74.115.3.63,216.200.145.235,221.208.241.38,116.72.72.149,61.17.216.92,86.126.40.27,202.41.136.81,68.189.127.14,12.168.76.27,207.115.37.23,216.69.186.201,67.195.168.31,61.58.37.38,173.201.33.10,203.138.181.112,216.163.188.53,62.133.192.11,208.65.145.13,58.42.247.143,117.197.182.9,195.113.232.73,216.32.180.22,194.109.24.139,216.82.253.243,66.147.244.209,137.254.16.78,216.82.254.179,94.232.160.42,173.10.227.233,94.63.149.152,194.105.190.18,193.110.85.38,77.238.184.241,46.137.9.143,200.10.152.53,9.251.141.128,212.82.111.207,66.11.225.98,200.91.27.32,202.168.25.162,64.29.151.237,178.95.10.210,68.142.202.129,80.82.234.160,195.90.96.67,205.188.146.194,65.117.131.163,74.117.116.92,75.180.132.243,66.162.172.40,187.106.81.34,200.245.83.211,42.201.166.157,218.57.22.44,67.231.144.220,78.138.22.163,208.65.144.3,212.68.215.40,168.95.5.56,50.58.16.21,72.52.248.24,64.12.90.97,216.99.131.15,74.125.77.27,211.157.110.34,46.148.34.83,195.76.106.170,82.103.123.207,174.133.57.141,205.178.149.7,83.238.197.86,74.208.5.90,128.200.1.6,203.142.24.35,121.245.3.131,66.210.173.30,62.121.128.13,94.248.9.208,74.125.235.48	(empty)	cm.g.doubleclick.net,splashpops.com,wellsfargo.com,m.adnxs.com,action.mathtag.com,newaitz.com,sbcmx5.prodigy.net,megaporn.com,admeld.adnxs.com,kjjhzhsy.com,www.carpet-tiles.com,partner.googleadservices.com,midas.dsultra.com,w.nucleardiscover.com,c.compete.com,www.netygames.com,ad.bannerconnect.net,aidps.atdmt.com,www.wishpot.com,mx1.cam.org,domdex.com,www.generalamuse.com,slapcube.com,pubads.g.doubleclick.net,a.mx.mail.yahoo.com,misratalium.in,login.live.com,yesky.com,sakura.ne.jp,ads.creafi-online-media.com,spe.atdmt.com,lzjl.com,d1ros97qkrwjf5.cloudfront.net,ssl.gstatic.com,pixel.quantserve.com,de,bid.openx.net,podviajar.com,f.mx.mail.yahoo.com,www.google.com,edge.quantserve.com,adserving.cpxadroit.com,btjunkie.org,delivery.ctasnet.com,ad.yieldmanager.com,www.identity.net,parkedcom.d.chango.com,codecs.microsoft.com,googleads.g.doubleclick.net,mewgost.com,cdn.ad4game.com,eastmoney.com,cdn2.cpmstar.com,trgc.opt.fimserve.com,ec.atdmt.com,m1.mediasrv.net,cmap.dc.ace.advertising.com,cdn.dsultra.com,adx.adnxs.com,cdn.cpmstar.com,ads.ad4game.com,pixel.invitemedia.com,88.perfectexe.com,love21cn.com,kidsmarket.info,c7.zedo.com,org,bl167w.blu167.mail.live.com,a.95622.com,linkwithin.com,adserving.cpxinteractive.com,r1-ads.ace.advertising.com,ad.technoratimedia.com,ib.adnxs.com,scannermarket.com,com,www.newcarus.com,smtp.aol.com,podwine.com,s0.2mdn.net,pixel.rubiconproject.com,dl.javafx.com,groupon.com,www.google-analytics.com,apis.google.com,riskslot.com,encyclopedialinks.com,uniquestrain.com,nocomcom.com,google.com,1.95622.com,d.mx.mail.yahoo.com,creditskin.com,skipmold.in,sync.mathtag.com,p.chango.com,ioidsjh.com,image10.bizrate-images.com,www.wtp101.com,xenocup.in,superbaw.com,hn.yigeyuming.com,openx2-match.dotomi.com,ad.doubleclick.net,apnxscm.ac3.msn.com,xe.com,mxs.mail.ru,adadvisor.net,sitesell.com,h.mx.mail.yahoo.com,server.cpmstar.com,r.turn.com,manxnetsf04.manx.net,mail.live.com,fgjiuhed.com,image11.bizrate-images.com,wingpoker.info,yahooadvertisingfeed.com,l2.zedo.com,fallleague.com,gmail-smtp-in.l.google.com,content.yieldmanager.edgesuite.net,google.ae,idpix.media6degrees.com,deskavert.com,jiioklww.com,r.openx.net,www.lddwj.com,scubavests.com,sexoar.info,content.yieldmanager.com,g.zedo.com,httptrack.com,image2.pubmatic.com,sexdrum.info,as.casalemedia.com,edusame.com,ad-cdn.technoratimedia.com,tag.admeld.com,mailin-04.mx.aol.com,ox-m.d.chango.com,alt4.gmail-smtp-in.l.google.com,carpet-tiles.com,irc.zief.pl,pagead2.googlesyndication.com,shabi.coolnuff.com,ii.ebatmoyhuy.com,xzrw1q.com,hcuewgbbnfdu1ew.com,ad.adfunky.com,ads.creafi.com,oversee.d.chango.com,in1.smtp.messagingengine.com,pandora.com,tags.mathtag.com,mailin-01.mx.aol.com,image12.bizrate-images.com,mx1.mail.eu.yahoo.com,ad.clovenetwork.com,co105w.col105.mail.live.com,s3.amazonaws.com,cmap.an.ace.advertising.com,cmap.am.ace.advertising.com,e.mx.mail.yahoo.com,ad.zanox.com,b.scorecardresearch.com,ikea.com,govenquiry.com,www.funglad.com,www.searchnut.com,mailin-03.mx.aol.com,ads.heias.com,segment-pixel.invitemedia.com,activex.microsoft.com,ads.pro-market.net,posidata.com,uac.advertising.com,mailin-02.mx.aol.com,images.ctasnet.com,cms.ad.yieldmanager.net,mail7.digitalwaves.co.nz,jump-cast.in,www.matrix-media.biz,cdnads.smowtion.com,gambleweb.co.uk,ak1.abmr.net,cookex.amp.yahoo.com,cmap.rub.ace.advertising.com,ad.103092804.com,adquorum.com,view.atdmt.com,image13.bizrate-images.com,c5.zedo.com,bannerfarm.ace.advertising.com,www.zkaoo.com,cdn3.cpmstar.com,manager.creafi.com,tmx.technoratimedia.com,beacon-1.newrelic.com
#close	2019-04-16-14-38-12
