#separator \x09
#set_separator	,
#empty_field	(empty)
#unset_field	-
#path	packet_filter
#open	2019-04-16-14-38-14
#fields	ts	node	filter	init	success
#types	time	string	string	bool	bool
1555405694.639554	bro	ip or not ip	T	T
#close	2019-04-16-14-38-15
